lab4_template_de1soc/simulation_wave/initialize_memory_sim/simulation/qsim/initialize_memory_sim.msim.vcd
$comment
	File created using the following command:
		vcd file initialize_memory_sim.msim.vcd -direction
$end
$date
	Sat Jun 17 18:31:12 2023
$end
$version
	ModelSim Version 10.5b
$end
$timescale
	1ps
$end

$scope module initialize_memory_sim_vlg_vec_tst $end
$var reg 1 ! clk $end
$var reg 1 " reset $end
$var reg 1 # start $end
$var wire 1 $ address [7] $end
$var wire 1 % address [6] $end
$var wire 1 & address [5] $end
$var wire 1 ' address [4] $end
$var wire 1 ( address [3] $end
$var wire 1 ) address [2] $end
$var wire 1 * address [1] $end
$var wire 1 + address [0] $end
$var wire 1 , data [7] $end
$var wire 1 - data [6] $end
$var wire 1 . data [5] $end
$var wire 1 / data [4] $end
$var wire 1 0 data [3] $end
$var wire 1 1 data [2] $end
$var wire 1 2 data [1] $end
$var wire 1 3 data [0] $end
$var wire 1 4 finish $end
$var wire 1 5 write_enable $end

$scope module i1 $end
$var wire 1 6 gnd $end
$var wire 1 7 vcc $end
$var wire 1 8 unknown $end
$var tri1 1 9 devclrn $end
$var tri1 1 : devpor $end
$var tri1 1 ; devoe $end
$var wire 1 < ~QUARTUS_CREATED_GND~I_combout $end
$var wire 1 = clk~input_o $end
$var wire 1 > clk~inputCLKENA0_outclk $end
$var wire 1 ? start~input_o $end
$var wire 1 @ Add0~2 $end
$var wire 1 A Add0~5_sumout $end
$var wire 1 B reset~input_o $end
$var wire 1 C Add0~6 $end
$var wire 1 D Add0~9_sumout $end
$var wire 1 E Add0~10 $end
$var wire 1 F Add0~13_sumout $end
$var wire 1 G Add0~14 $end
$var wire 1 H Add0~17_sumout $end
$var wire 1 I Add0~18 $end
$var wire 1 J Add0~21_sumout $end
$var wire 1 K Equal0~0_combout $end
$var wire 1 L Add0~22 $end
$var wire 1 M Add0~25_sumout $end
$var wire 1 N Add0~26 $end
$var wire 1 O Add0~29_sumout $end
$var wire 1 P Equal0~1_combout $end
$var wire 1 Q state[3]~DUPLICATE_q $end
$var wire 1 R state~2_combout $end
$var wire 1 S state[2]~DUPLICATE_q $end
$var wire 1 T state~0_combout $end
$var wire 1 U state~1_combout $end
$var wire 1 V state[4]~DUPLICATE_q $end
$var wire 1 W Selector0~0_combout $end
$var wire 1 X Selector0~1_combout $end
$var wire 1 Y Selector1~0_combout $end
$var wire 1 Z Decoder0~0_combout $end
$var wire 1 [ Add0~1_sumout $end
$var wire 1 \ i [7] $end
$var wire 1 ] i [6] $end
$var wire 1 ^ i [5] $end
$var wire 1 _ i [4] $end
$var wire 1 ` i [3] $end
$var wire 1 a i [2] $end
$var wire 1 b i [1] $end
$var wire 1 c i [0] $end
$var wire 1 d state [4] $end
$var wire 1 e state [3] $end
$var wire 1 f state [2] $end
$var wire 1 g state [1] $end
$var wire 1 h state [0] $end
$upscope $end
$upscope $end
$enddefinitions $end
#0
$dumpvars
0!
0"
0#
0+
0*
0)
0(
0'
0&
0%
0$
03
02
01
00
0/
0.
0-
0,
04
05
06
17
x8
19
1:
1;
0<
0=
0>
0?
0@
0A
0B
0C
0D
0E
0F
0G
0H
0I
0J
0K
0L
0M
0N
0O
0P
0Q
0R
0S
0T
0U
0V
1W
0X
1Y
0Z
0[
0c
0b
0a
0`
0_
0^
0]
0\
0h
0g
0f
0e
0d
$end
#5000
1!
1=
1>
1h
#10000
1#
0!
1?
0=
0>
0Y
1X
#15000
1!
1=
1>
0h
1g
0W
1R
0X
#20000
0!
0=
0>
#25000
1!
1=
1>
0g
1S
1f
15
1Z
#30000
0#
0!
0?
0=
0>
#35000
1!
1=
1>
1e
1Q
1T
0R
0Z
1[
1X
#40000
0!
0=
0>
#45000
1!
1=
1>
0e
1g
0S
0Q
1c
0f
05
1+
13
0T
1R
0X
#50000
0!
0=
0>
#55000
1!
1=
1>
0g
1S
1f
15
1Z
#60000
0!
0=
0>
#65000
1!
1=
1>
1e
1Q
1T
1@
0R
0Z
0[
1A
1X
#70000
0!
0=
0>
#75000
1!
1=
1>
0e
1g
0S
0Q
0c
0f
1b
1*
12
05
0+
03
0T
0@
1C
1R
0A
0C
1A
1D
0X
0D
#80000
0!
0=
0>
#85000
1!
1=
1>
0g
1S
1f
15
1Z
#90000
0!
0=
0>
#95000
1!
1=
1>
1e
1Q
1T
0R
0Z
1[
1X
#100000
1"
0!
1B
0=
0>
#105000
1!
1=
1>
0e
1g
0S
0Q
0f
0b
0*
02
05
0T
1R
0[
0A
0X
#110000
0"
0!
0B
0=
0>
#115000
1!
1=
1>
0g
1S
1f
15
1Z
#120000
0!
0=
0>
#125000
1!
1=
1>
1e
1Q
1T
0R
0Z
1[
1X
#130000
1#
0!
1?
0=
0>
#135000
1!
1=
1>
0e
1g
0S
0Q
1c
0f
05
1+
13
0T
1R
0X
#140000
0#
0!
0?
0=
0>
#145000
1!
1=
1>
0g
1S
1f
15
1Z
#150000
0!
0=
0>
#155000
1!
1=
1>
1e
1Q
1T
1@
0R
0Z
0[
1A
1X
#160000
0!
0=
0>
#165000
1!
1=
1>
0e
1g
0S
0Q
0c
0f
1b
1*
12
05
0+
03
0T
0@
1C
1R
0A
0C
1A
1D
0X
0D
#170000
0!
0=
0>
#175000
1!
1=
1>
0g
1S
1f
15
1Z
#180000
0!
0=
0>
#185000
1!
1=
1>
1e
1Q
1T
0R
0Z
1[
1X
#190000
0!
0=
0>
#195000
1!
1=
1>
0e
1g
0S
0Q
1c
0f
05
1+
13
0T
1R
0X
#200000
0!
0=
0>
#205000
1!
1=
1>
0g
1S
1f
15
1Z
#210000
0!
0=
0>
#215000
1!
1=
1>
1e
1Q
1T
1@
0R
0Z
0[
1C
0A
1X
1D
#220000
0!
0=
0>
#225000
1!
1=
1>
0e
1g
0S
0Q
0c
0f
1a
0b
0*
02
1)
11
05
0+
03
0T
0@
0C
1E
1R
1A
0D
0E
0A
1D
1F
0X
0F
#230000
0!
0=
0>
#235000
1!
1=
1>
0g
1S
1f
15
1Z
#240000
0!
0=
0>
#245000
1!
1=
1>
1e
1Q
1T
0R
0Z
1[
1X
#250000
0!
0=
0>
#255000
1!
1=
1>
0e
1g
0S
0Q
1c
0f
05
1+
13
0T
1R
0X
#260000
0!
0=
0>
#265000
1!
1=
1>
0g
1S
1f
15
1Z
#270000
0!
0=
0>
#275000
1!
1=
1>
1e
1Q
1T
1@
0R
0Z
0[
1A
1X
#280000
0!
0=
0>
#285000
1!
1=
1>
0e
1g
0S
0Q
0c
0f
1b
1*
12
05
0+
03
0T
0@
1C
1R
0A
0C
1E
1A
0D
0X
0E
1D
1F
0F
#290000
0!
0=
0>
#295000
1!
1=
1>
0g
1S
1f
15
1Z
#300000
0!
0=
0>
#305000
1!
1=
1>
1e
1Q
1T
0R
0Z
1[
1X
#310000
0!
0=
0>
#315000
1!
1=
1>
0e
1g
0S
0Q
1c
0f
05
1+
13
0T
1R
0X
#320000
0!
0=
0>
#325000
1!
1=
1>
0g
1S
1f
15
1Z
#330000
0!
0=
0>
#335000
1!
1=
1>
1e
1Q
1T
1@
0R
0Z
0[
1C
0A
1X
1E
0D
1F
#340000
0!
0=
0>
#345000
1!
1=
1>
0e
1g
0S
0Q
0c
0f
1`
0a
0b
0*
02
0)
01
1(
10
05
0+
03
0T
0@
0C
0E
1G
1R
1A
1D
0F
0G
0A
0D
1F
1H
0X
0H
#350000
0!
0=
0>
#355000
1!
1=
1>
0g
1S
1f
15
1Z
#360000
0!
0=
0>
#365000
1!
1=
1>
1e
1Q
1T
0R
0Z
1[
1X
#370000
0!
0=
0>
#375000
1!
1=
1>
0e
1g
0S
0Q
1c
0f
05
1+
13
0T
1R
0X
#380000
0!
0=
0>
#385000
1!
1=
1>
0g
1S
1f
15
1Z
#390000
0!
0=
0>
#395000
1!
1=
1>
1e
1Q
1T
1@
0R
0Z
0[
1A
1X
#400000
0!
0=
0>
#405000
1!
1=
1>
0e
1g
0S
0Q
0c
0f
1b
1*
12
05
0+
03
0T
0@
1C
1R
0A
0C
1A
1D
0X
0D
#410000
0!
0=
0>
#415000
1!
1=
1>
0g
1S
1f
15
1Z
#420000
0!
0=
0>
#425000
1!
1=
1>
1e
1Q
1T
0R
0Z
1[
1X
#430000
0!
0=
0>
#435000
1!
1=
1>
0e
1g
0S
0Q
1c
0f
05
1+
13
0T
1R
0X
#440000
0!
0=
0>
#445000
1!
1=
1>
0g
1S
1f
15
1Z
#450000
0!
0=
0>
#455000
1!
1=
1>
1e
1Q
1T
1@
0R
0Z
0[
1C
0A
1X
1D
#460000
0!
0=
0>
#465000
1!
1=
1>
0e
1g
0S
0Q
0c
0f
1a
0b
0*
02
1)
11
05
0+
03
0T
0@
0C
1E
1R
1A
0D
0E
1G
0A
1D
0F
0X
0G
1F
1H
0H
#470000
0!
0=
0>
#475000
1!
1=
1>
0g
1S
1f
15
1Z
#480000
0!
0=
0>
#485000
1!
1=
1>
1e
1Q
1T
0R
0Z
1[
1X
#490000
0!
0=
0>
#495000
1!
1=
1>
0e
1g
0S
0Q
1c
0f
05
1+
13
0T
1R
0X
#500000
0!
0=
0>
#505000
1!
1=
1>
0g
1S
1f
15
1Z
#510000
0!
0=
0>
#515000
1!
1=
1>
1e
1Q
1T
1@
0R
0Z
0[
1A
1X
#520000
0!
0=
0>
#525000
1!
1=
1>
0e
1g
0S
0Q
0c
0f
1b
1*
12
05
0+
03
0T
0@
1C
1R
0A
0C
1E
1A
0D
0X
0E
1G
1D
0F
0G
1F
1H
0H
#530000
0!
0=
0>
#535000
1!
1=
1>
0g
1S
1f
15
1Z
#540000
0!
0=
0>
#545000
1!
1=
1>
1e
1Q
1T
0R
0Z
1[
1X
#550000
0!
0=
0>
#555000
1!
1=
1>
0e
1g
0S
0Q
1c
0f
05
1+
13
0T
1R
0X
#560000
0!
0=
0>
#565000
1!
1=
1>
0g
1S
1f
15
1Z
#570000
0!
0=
0>
#575000
1!
1=
1>
1e
1Q
1T
1@
0R
0Z
0[
1C
0A
1X
1E
0D
1G
0F
1H
#580000
0!
0=
0>
#585000
1!
1=
1>
0e
1g
0S
0Q
0c
0f
1_
0`
0a
0b
0*
02
0)
01
0(
00
1'
1/
05
0+
03
0T
0@
0C
0E
0G
1I
1R
1A
1D
1F
0H
0I
0A
0D
0F
1H
1J
0X
0J
#590000
0!
0=
0>
#595000
1!
1=
1>
0g
1S
1f
15
1Z
#600000
0!
0=
0>
#605000
1!
1=
1>
1e
1Q
1T
0R
0Z
1[
1X
#610000
0!
0=
0>
#615000
1!
1=
1>
0e
1g
0S
0Q
1c
0f
05
1+
13
0T
1R
0X
#620000
0!
0=
0>
#625000
1!
1=
1>
0g
1S
1f
15
1Z
#630000
0!
0=
0>
#635000
1!
1=
1>
1e
1Q
1T
1@
0R
0Z
0[
1A
1X
#640000
0!
0=
0>
#645000
1!
1=
1>
0e
1g
0S
0Q
0c
0f
1b
1*
12
05
0+
03
0T
0@
1C
1R
0A
0C
1A
1D
0X
0D
#650000
0!
0=
0>
#655000
1!
1=
1>
0g
1S
1f
15
1Z
#660000
0!
0=
0>
#665000
1!
1=
1>
1e
1Q
1T
0R
0Z
1[
1X
#670000
0!
0=
0>
#675000
1!
1=
1>
0e
1g
0S
0Q
1c
0f
05
1+
13
0T
1R
0X
#680000
0!
0=
0>
#685000
1!
1=
1>
0g
1S
1f
15
1Z
#690000
0!
0=
0>
#695000
1!
1=
1>
1e
1Q
1T
1@
0R
0Z
0[
1C
0A
1X
1D
#700000
0!
0=
0>
#705000
1!
1=
1>
0e
1g
0S
0Q
0c
0f
1a
0b
0*
02
1)
11
05
0+
03
0T
0@
0C
1E
1R
1A
0D
0E
0A
1D
1F
0X
0F
#710000
0!
0=
0>
#715000
1!
1=
1>
0g
1S
1f
15
1Z
#720000
0!
0=
0>
#725000
1!
1=
1>
1e
1Q
1T
0R
0Z
1[
1X
#730000
0!
0=
0>
#735000
1!
1=
1>
0e
1g
0S
0Q
1c
0f
05
1+
13
0T
1R
0X
#740000
0!
0=
0>
#745000
1!
1=
1>
0g
1S
1f
15
1Z
#750000
0!
0=
0>
#755000
1!
1=
1>
1e
1Q
1T
1@
0R
0Z
0[
1A
1X
#760000
0!
0=
0>
#765000
1!
1=
1>
0e
1g
0S
0Q
0c
0f
1b
1*
12
05
0+
03
0T
0@
1C
1R
0A
0C
1E
1A
0D
0X
0E
1D
1F
0F
#770000
0!
0=
0>
#775000
1!
1=
1>
0g
1S
1f
15
1Z
#780000
0!
0=
0>
#785000
1!
1=
1>
1e
1Q
1T
0R
0Z
1[
1X
#790000
0!
0=
0>
#795000
1!
1=
1>
0e
1g
0S
0Q
1c
0f
05
1+
13
0T
1R
0X
#800000
0!
0=
0>
#805000
1!
1=
1>
0g
1S
1f
15
1Z
#810000
0!
0=
0>
#815000
1!
1=
1>
1e
1Q
1T
1@
0R
0Z
0[
1C
0A
1X
1E
0D
1F
#820000
0!
0=
0>
#825000
1!
1=
1>
0e
1g
0S
0Q
0c
0f
1`
0a
0b
0*
02
0)
01
1(
10
05
0+
03
0T
0@
0C
0E
1G
1R
1A
1D
0F
0G
1I
0A
0D
1F
0H
0X
0I
1H
1J
0J
#830000
0!
0=
0>
#835000
1!
1=
1>
0g
1S
1f
15
1Z
#840000
0!
0=
0>
#845000
1!
1=
1>
1e
1Q
1T
0R
0Z
1[
1X
#850000
0!
0=
0>
#855000
1!
1=
1>
0e
1g
0S
0Q
1c
0f
05
1+
13
0T
1R
0X
#860000
0!
0=
0>
#865000
1!
1=
1>
0g
1S
1f
15
1Z
#870000
0!
0=
0>
#875000
1!
1=
1>
1e
1Q
1T
1@
0R
0Z
0[
1A
1X
#880000
0!
0=
0>
#885000
1!
1=
1>
0e
1g
0S
0Q
0c
0f
1b
1*
12
05
0+
03
0T
0@
1C
1R
0A
0C
1A
1D
0X
0D
#890000
0!
0=
0>
#895000
1!
1=
1>
0g
1S
1f
15
1Z
#900000
0!
0=
0>
#905000
1!
1=
1>
1e
1Q
1T
0R
0Z
1[
1X
#910000
0!
0=
0>
#915000
1!
1=
1>
0e
1g
0S
0Q
1c
0f
05
1+
13
0T
1R
0X
#920000
0!
0=
0>
#925000
1!
1=
1>
0g
1S
1f
15
1Z
#930000
0!
0=
0>
#935000
1!
1=
1>
1e
1Q
1T
1@
0R
0Z
0[
1C
0A
1X
1D
#940000
0!
0=
0>
#945000
1!
1=
1>
0e
1g
0S
0Q
0c
0f
1a
0b
0*
02
1)
11
05
0+
03
0T
0@
0C
1E
1R
1A
0D
0E
1G
0A
1D
0F
0X
0G
1I
1F
0H
0I
1H
1J
0J
#950000
0!
0=
0>
#955000
1!
1=
1>
0g
1S
1f
15
1Z
#960000
0!
0=
0>
#965000
1!
1=
1>
1e
1Q
1T
0R
0Z
1[
1X
#970000
0!
0=
0>
#975000
1!
1=
1>
0e
1g
0S
0Q
1c
0f
05
1+
13
0T
1R
0X
#980000
0!
0=
0>
#985000
1!
1=
1>
0g
1S
1f
15
1Z
#990000
0!
0=
0>
#995000
1!
1=
1>
1e
1Q
1T
1@
0R
0Z
0[
1A
1X
