H2/qs2/simulation/qsim/qs2.msim.vcd
$comment
	File created using the following command:
		vcd file qs2.msim.vcd -direction
$end
$date
	Fri Jun 02 16:19:06 2023
$end
$version
	ModelSim Version 10.5b
$end
$timescale
	1ps
$end

$scope module qs2_vlg_vec_tst $end
$var reg 1 ! clk $end
$var reg 1 " goto_third $end
$var reg 1 # pause $end
$var reg 1 $ restart $end
$var reg 1 % rst $end
$var wire 1 & Out1 [2] $end
$var wire 1 ' Out1 [1] $end
$var wire 1 ( Out1 [0] $end
$var wire 1 ) Out2 [2] $end
$var wire 1 * Out2 [1] $end
$var wire 1 + Out2 [0] $end
$var wire 1 , even $end
$var wire 1 - odd $end
$var wire 1 . state [10] $end
$var wire 1 / state [9] $end
$var wire 1 0 state [8] $end
$var wire 1 1 state [7] $end
$var wire 1 2 state [6] $end
$var wire 1 3 state [5] $end
$var wire 1 4 state [4] $end
$var wire 1 5 state [3] $end
$var wire 1 6 state [2] $end
$var wire 1 7 state [1] $end
$var wire 1 8 state [0] $end
$var wire 1 9 terminal $end

$scope module i1 $end
$var wire 1 : gnd $end
$var wire 1 ; vcc $end
$var wire 1 < unknown $end
$var tri1 1 = devclrn $end
$var tri1 1 > devpor $end
$var tri1 1 ? devoe $end
$var wire 1 @ ~QUARTUS_CREATED_GND~I_combout $end
$var wire 1 A clk~input_o $end
$var wire 1 B clk~inputCLKENA0_outclk $end
$var wire 1 C pause~input_o $end
$var wire 1 D restart~input_o $end
$var wire 1 E state[10]~reg0feeder_combout $end
$var wire 1 F rst~input_o $end
$var wire 1 G state[10]~reg0_q $end
$var wire 1 H Selector2~2_combout $end
$var wire 1 I Selector1~0_combout $end
$var wire 1 J Equal1~1_combout $end
$var wire 1 K Selector7~0_combout $end
$var wire 1 L state[2]~reg0_q $end
$var wire 1 M state[1]~reg0_q $end
$var wire 1 N Selector1~1_combout $end
$var wire 1 O Equal2~0_combout $end
$var wire 1 P Selector1~3_combout $end
$var wire 1 Q Selector1~4_combout $end
$var wire 1 R state[4]~reg0_q $end
$var wire 1 S Equal1~0_combout $end
$var wire 1 T Equal1~2_combout $end
$var wire 1 U Equal3~0_combout $end
$var wire 1 V Equal2~2_combout $end
$var wire 1 W Selector2~0_combout $end
$var wire 1 X Selector3~0_combout $end
$var wire 1 Y state[6]~reg0_q $end
$var wire 1 Z Selector4~0_combout $end
$var wire 1 [ Selector6~0_combout $end
$var wire 1 \ Selector4~1_combout $end
$var wire 1 ] state[5]~reg0_q $end
$var wire 1 ^ goto_third~input_o $end
$var wire 1 _ Selector1~2_combout $end
$var wire 1 ` Selector1~5_combout $end
$var wire 1 a Selector6~1_combout $end
$var wire 1 b state[3]~reg0_q $end
$var wire 1 c Equal2~1_combout $end
$var wire 1 d Selector2~1_combout $end
$var wire 1 e state[0]~reg0_q $end
$upscope $end
$upscope $end
$enddefinitions $end
#0
$dumpvars
0!
0"
0#
0$
0%
1(
1'
0&
0+
1*
0)
0,
1-
08
07
16
05
14
13
02
01
00
0/
0.
09
0:
1;
x<
1=
1>
1?
0@
0A
0B
0C
0D
0E
0F
0G
1H
1I
0J
1K
0L
0M
1N
0O
0P
0Q
0R
1S
0T
0U
1V
1W
1X
0Y
0Z
0[
1\
0]
0^
0_
0`
1a
0b
0c
1d
0e
$end
#5000
1!
1A
1B
1]
1L
1e
1b
1Y
0-
12
1&
15
1)
18
10
1,
0*
06
0'
03
0N
1J
0I
0V
0H
0W
1[
1T
0d
0\
0X
0a
0K
1Q
1a
#10000
0!
0A
0B
#15000
1!
1A
1B
0]
1R
0L
0e
0Y
1M
1-
17
1/
1+
02
0&
08
00
0,
1*
16
0(
04
1'
13
1O
0J
0S
1V
1H
0[
0T
1c
1`
1P
0a
1d
1X
#20000
1#
0!
1C
0A
0B
0H
0d
1a
0X
#25000
1!
1A
1B
#30000
0!
0A
0B
#35000
1!
1A
1B
#40000
0!
0A
0B
#45000
1!
1A
1B
#50000
0!
0A
0B
#55000
1!
1A
1B
#60000
0#
0!
0C
0A
0B
1H
1d
0a
1X
#65000
1!
1A
1B
1e
0b
1Y
0-
12
1&
05
0)
18
10
1,
0c
0`
1Z
1U
0P
0H
0Q
0d
1\
1E
#70000
0!
0A
0B
#75000
1!
1A
1B
1]
0R
0e
0M
1G
1-
11
1.
19
07
0/
0+
08
00
0,
1(
14
0'
03
1S
0O
1N
0V
0Z
0U
1I
0X
0\
0E
#80000
0!
0A
0B
#85000
1!
1A
1B
0]
0Y
0G
01
0.
09
02
0&
1'
13
1V
1H
1W
1a
1K
1d
1\
1X
#90000
0!
0A
0B
#95000
1!
1A
1B
1]
1L
1e
1b
1Y
0-
12
1&
15
1)
18
10
1,
0*
06
0'
03
0N
1J
0I
0V
0H
0W
1[
1T
0d
0\
0X
0a
0K
1Q
1a
#100000
1#
0!
1C
0A
0B
0Q
1d
1\
1X
1K
#105000
1!
1A
1B
#110000
0!
0A
0B
#115000
1!
1A
1B
#120000
0!
0A
0B
#125000
1!
1A
1B
#130000
0!
0A
0B
#135000
1!
1A
1B
#140000
0#
0!
0C
0A
0B
1Q
0d
0\
0X
0K
#145000
1!
1A
1B
0]
1R
0L
0e
0Y
1M
1-
17
1/
1+
02
0&
08
00
0,
1*
16
0(
04
1'
13
1O
0J
0S
1V
1H
0[
0T
1c
1`
1P
0a
1d
1X
#150000
0!
0A
0B
#155000
1!
1A
1B
1e
0b
1Y
0-
12
1&
05
0)
18
10
1,
0c
0`
1Z
1U
0P
0H
0Q
0d
1\
1E
#160000
0!
0A
0B
#165000
1!
1A
1B
1]
0R
0e
0M
1G
1-
11
1.
19
07
0/
0+
08
00
0,
1(
14
0'
03
1S
0O
1N
0V
0Z
0U
1I
0X
0\
0E
#170000
0!
0A
0B
#175000
1!
1A
1B
0]
0Y
0G
01
0.
09
02
0&
1'
13
1V
1H
1W
1a
1K
1d
1\
1X
#180000
1#
0!
1C
0A
0B
0W
0H
0a
0K
0d
0\
0X
#185000
1!
1A
1B
#190000
0!
0A
0B
#195000
1!
1A
1B
#200000
0!
0A
0B
#205000
1!
1A
1B
#210000
0!
0A
0B
#215000
1!
1A
1B
#220000
0#
0!
0C
0A
0B
1W
1H
1a
1K
1d
1\
1X
#225000
1!
1A
1B
1]
1L
1e
1b
1Y
0-
12
1&
15
1)
18
10
1,
0*
06
0'
03
0N
1J
0I
0V
0H
0W
1[
1T
0d
0\
0X
0a
0K
1Q
1a
#230000
0!
0A
0B
#235000
1!
1A
1B
0]
1R
0L
0e
0Y
1M
1-
17
1/
1+
02
0&
08
00
0,
1*
16
0(
04
1'
13
1O
0J
0S
1V
1H
0[
0T
1c
1`
1P
0a
1d
1X
#240000
0!
0A
0B
#245000
1!
1A
1B
1e
0b
1Y
0-
12
1&
05
0)
18
10
1,
0c
0`
1Z
1U
0P
0H
0Q
0d
1\
1E
#250000
0!
0A
0B
#255000
1!
1A
1B
1]
0R
0e
0M
1G
1-
11
1.
19
07
0/
0+
08
00
0,
1(
14
0'
03
1S
0O
1N
0V
0Z
0U
1I
0X
0\
0E
#260000
1#
0!
1C
0A
0B
#265000
1!
1A
1B
0]
0Y
0G
01
0.
09
02
0&
1'
13
1V
#270000
0!
0A
0B
#275000
1!
1A
1B
#280000
0!
0A
0B
#285000
1!
1A
1B
#290000
0!
0A
0B
#295000
1!
1A
1B
#300000
0#
0!
0C
0A
0B
1W
1H
1a
1K
1d
1\
1X
#305000
1!
1A
1B
1]
1L
1e
1b
1Y
0-
12
1&
15
1)
18
10
1,
0*
06
0'
03
0N
1J
0I
0V
0H
0W
1[
1T
0d
0\
0X
0a
0K
1Q
1a
#310000
0!
0A
0B
#315000
1!
1A
1B
0]
1R
0L
0e
0Y
1M
1-
17
1/
1+
02
0&
08
00
0,
1*
16
0(
04
1'
13
1O
0J
0S
1V
1H
0[
0T
1c
1`
1P
0a
1d
1X
#320000
0!
0A
0B
#325000
1!
1A
1B
1e
0b
1Y
0-
12
1&
05
0)
18
10
1,
0c
0`
1Z
1U
0P
0H
0Q
0d
1\
1E
#330000
0!
0A
0B
#335000
1!
1A
1B
1]
0R
0e
0M
1G
1-
11
1.
19
07
0/
0+
08
00
0,
1(
14
0'
03
1S
0O
1N
0V
0Z
0U
1I
0X
0\
0E
#340000
0!
0A
0B
#345000
1!
1A
1B
0]
0Y
0G
01
0.
09
02
0&
1'
13
1V
1H
1W
1a
1K
1d
1\
1X
#350000
0!
0A
0B
#355000
1!
1A
1B
1]
1L
1e
1b
1Y
0-
12
1&
15
1)
18
10
1,
0*
06
0'
03
0N
1J
0I
0V
0H
0W
1[
1T
0d
0\
0X
0a
0K
1Q
1a
#360000
0!
0A
0B
#365000
1!
1A
1B
0]
1R
0L
0e
0Y
1M
1-
17
1/
1+
02
0&
08
00
0,
1*
16
0(
04
1'
13
1O
0J
0S
1V
1H
0[
0T
1c
1`
1P
0a
1d
1X
#370000
1$
0!
1D
0A
0B
0`
0P
0d
0X
0Q
#375000
1!
1A
1B
0R
0b
0M
07
0/
0+
05
0)
1(
14
1S
0O
0c
1I
#380000
0!
0A
0B
#385000
1!
1A
1B
#390000
0$
0!
0D
0A
0B
1W
1N
1K
1a
1d
1\
1X
#395000
1!
1A
1B
1]
1L
1e
1b
1Y
0-
12
1&
15
1)
18
10
1,
0*
06
0'
03
0N
1J
0I
0V
0H
0W
1[
1T
0d
0\
0X
0a
0K
1Q
1a
#400000
0!
0A
0B
#405000
1!
1A
1B
0]
1R
0L
0e
0Y
1M
1-
17
1/
1+
02
0&
08
00
0,
1*
16
0(
04
1'
13
1O
0J
0S
1V
1H
0[
0T
1c
1`
1P
0a
1d
1X
#410000
0!
0A
0B
#415000
1!
1A
1B
1e
0b
1Y
0-
12
1&
05
0)
18
10
1,
0c
0`
1Z
1U
0P
0H
0Q
0d
1\
1E
#420000
0!
0A
0B
#425000
1!
1A
1B
1]
0R
0e
0M
1G
1-
11
1.
19
07
0/
0+
08
00
0,
1(
14
0'
03
1S
0O
1N
0V
0Z
0U
1I
0X
0\
0E
#430000
1#
0!
1C
0A
0B
#435000
1!
1A
1B
0]
0Y
0G
01
0.
09
02
0&
1'
13
1V
#440000
0!
0A
0B
#445000
1!
1A
1B
#450000
0!
0A
0B
#455000
1!
1A
1B
#460000
1"
0#
0!
1^
0C
0A
0B
1W
1H
1a
1K
1d
1\
1X
#465000
1!
1A
1B
1]
1L
1e
1b
1Y
0-
12
1&
15
1)
18
10
1,
0*
06
0'
03
0N
1J
0I
0V
0H
0W
1[
1T
0d
0\
0X
0a
0K
1Q
1a
#470000
0!
0A
0B
#475000
1!
1A
1B
0]
1R
0L
0e
0Y
1M
1-
17
1/
1+
02
0&
08
00
0,
1*
16
0(
04
1'
13
1O
0J
0S
1V
1H
0[
0T
1c
1`
1P
0a
1d
1X
#480000
0!
0A
0B
#485000
1!
1A
1B
1e
0b
1Y
0-
12
1&
05
0)
18
10
1,
0c
0`
1Z
1U
0P
0H
0Q
0d
1\
1E
#490000
0!
0A
0B
#495000
1!
1A
1B
1]
0R
0e
0M
1G
1-
11
1.
19
07
0/
0+
08
00
0,
1(
14
0'
03
1S
0O
1N
1_
0V
0Z
0U
1I
1Q
0X
0\
0E
1a
#500000
0"
0!
0^
0A
0B
0_
0Q
0a
#505000
1!
1A
1B
0]
0Y
0G
01
0.
09
02
0&
1'
13
1V
1H
1W
1a
1K
1d
1\
1X
#510000
0!
0A
0B
#515000
1!
1A
1B
1]
1L
1e
1b
1Y
0-
12
1&
15
1)
18
10
1,
0*
06
0'
03
0N
1J
0I
0V
0H
0W
1[
1T
0d
0\
0X
0a
0K
1Q
1a
#520000
0!
0A
0B
#525000
1!
1A
1B
0]
1R
0L
0e
0Y
1M
1-
17
1/
1+
02
0&
08
00
0,
1*
16
0(
04
1'
13
1O
0J
0S
1V
1H
0[
0T
1c
1`
1P
0a
1d
1X
#530000
1%
0!
1F
0A
0B
0R
0M
0b
05
0)
07
0/
0+
1(
14
1S
0O
1N
0c
0`
0P
1I
1W
0Q
1K
1a
0d
0X
1d
1\
1X
#535000
1!
1A
1B
#540000
0!
0A
0B
#545000
1!
1A
1B
#550000
0%
0!
0F
0A
0B
#555000
1!
1A
1B
1]
1L
1e
1b
1Y
0-
12
1&
15
1)
18
10
1,
0*
06
0'
03
0N
1J
0I
0V
0H
0W
1[
1T
0d
0\
0X
0a
0K
1Q
1a
#560000
0!
0A
0B
#565000
1!
1A
1B
0]
1R
0L
0e
0Y
1M
1-
17
1/
1+
02
0&
08
00
0,
1*
16
0(
04
1'
13
1O
0J
0S
1V
1H
0[
0T
1c
1`
1P
0a
1d
1X
#570000
0!
0A
0B
#575000
1!
1A
1B
1e
0b
1Y
0-
12
1&
05
0)
18
10
1,
0c
0`
1Z
1U
0P
0H
0Q
0d
1\
1E
#580000
0!
0A
0B
#585000
1!
1A
1B
1]
0R
0e
0M
1G
1-
11
1.
19
07
0/
0+
08
00
0,
1(
14
0'
03
1S
0O
1N
0V
0Z
0U
1I
0X
0\
0E
#590000
0!
0A
0B
#595000
1!
1A
1B
0]
0Y
0G
01
0.
09
02
0&
1'
13
1V
1H
1W
1a
1K
1d
1\
1X
#600000
0!
0A
0B
#605000
1!
1A
1B
1]
1L
1e
1b
1Y
0-
12
1&
15
1)
18
10
1,
0*
06
0'
03
0N
1J
0I
0V
0H
0W
1[
1T
0d
0\
0X
0a
0K
1Q
1a
#610000
0!
0A
0B
#615000
1!
1A
1B
0]
1R
0L
0e
0Y
1M
1-
17
1/
1+
02
0&
08
00
0,
1*
16
0(
04
1'
13
1O
0J
0S
1V
1H
0[
0T
1c
1`
1P
0a
1d
1X
#620000
0!
0A
0B
#625000
1!
1A
1B
1e
0b
1Y
0-
12
1&
05
0)
18
10
1,
0c
0`
1Z
1U
0P
0H
0Q
0d
1\
1E
#630000
0!
0A
0B
#635000
1!
1A
1B
1]
0R
0e
0M
1G
1-
11
1.
19
07
0/
0+
08
00
0,
1(
14
0'
03
1S
0O
1N
0V
0Z
0U
1I
0X
0\
0E
#640000
0!
0A
0B
#645000
1!
1A
1B
0]
0Y
0G
01
0.
09
02
0&
1'
13
1V
1H
1W
1a
1K
1d
1\
1X
#650000
0!
0A
0B
#655000
1!
1A
1B
1]
1L
1e
1b
1Y
0-
12
1&
15
1)
18
10
1,
0*
06
0'
03
0N
1J
0I
0V
0H
0W
1[
1T
0d
0\
0X
0a
0K
1Q
1a
#660000
0!
0A
0B
#665000
1!
1A
1B
0]
1R
0L
0e
0Y
1M
1-
17
1/
1+
02
0&
08
00
0,
1*
16
0(
04
1'
13
1O
0J
0S
1V
1H
0[
0T
1c
1`
1P
0a
1d
1X
#670000
0!
0A
0B
#675000
1!
1A
1B
1e
0b
1Y
0-
12
1&
05
0)
18
10
1,
0c
0`
1Z
1U
0P
0H
0Q
0d
1\
1E
#680000
0!
0A
0B
#685000
1!
1A
1B
1]
0R
0e
0M
1G
1-
11
1.
19
07
0/
0+
08
00
0,
1(
14
0'
03
1S
0O
1N
0V
0Z
0U
1I
0X
0\
0E
#690000
0!
0A
0B
#695000
1!
1A
1B
0]
0Y
0G
01
0.
09
02
0&
1'
13
1V
1H
1W
1a
1K
1d
1\
1X
#700000
0!
0A
0B
#705000
1!
1A
1B
1]
1L
1e
1b
1Y
0-
12
1&
15
1)
18
10
1,
0*
06
0'
03
0N
1J
0I
0V
0H
0W
1[
1T
0d
0\
0X
0a
0K
1Q
1a
#710000
0!
0A
0B
#715000
1!
1A
1B
0]
1R
0L
0e
0Y
1M
1-
17
1/
1+
02
0&
08
00
0,
1*
16
0(
04
1'
13
1O
0J
0S
1V
1H
0[
0T
1c
1`
1P
0a
1d
1X
#720000
0!
0A
0B
#725000
1!
1A
1B
1e
0b
1Y
0-
12
1&
05
0)
18
10
1,
0c
0`
1Z
1U
0P
0H
0Q
0d
1\
1E
#730000
0!
0A
0B
#735000
1!
1A
1B
1]
0R
0e
0M
1G
1-
11
1.
19
07
0/
0+
08
00
0,
1(
14
0'
03
1S
0O
1N
0V
0Z
0U
1I
0X
0\
0E
#740000
0!
0A
0B
#745000
1!
1A
1B
0]
0Y
0G
01
0.
09
02
0&
1'
13
1V
1H
1W
1a
1K
1d
1\
1X
#750000
0!
0A
0B
#755000
1!
1A
1B
1]
1L
1e
1b
1Y
0-
12
1&
15
1)
18
10
1,
0*
06
0'
03
0N
1J
0I
0V
0H
0W
1[
1T
0d
0\
0X
0a
0K
1Q
1a
#760000
0!
0A
0B
#765000
1!
1A
1B
0]
1R
0L
0e
0Y
1M
1-
17
1/
1+
02
0&
08
00
0,
1*
16
0(
04
1'
13
1O
0J
0S
1V
1H
0[
0T
1c
1`
1P
0a
1d
1X
#770000
0!
0A
0B
#775000
1!
1A
1B
1e
0b
1Y
0-
12
1&
05
0)
18
10
1,
0c
0`
1Z
1U
0P
0H
0Q
0d
1\
1E
#780000
0!
0A
0B
#785000
1!
1A
1B
1]
0R
0e
0M
1G
1-
11
1.
19
07
0/
0+
08
00
0,
1(
14
0'
03
1S
0O
1N
0V
0Z
0U
1I
0X
0\
0E
#790000
0!
0A
0B
#795000
1!
1A
1B
0]
0Y
0G
01
0.
09
02
0&
1'
13
1V
1H
1W
1a
1K
1d
1\
1X
#800000
0!
0A
0B
#805000
1!
1A
1B
1]
1L
1e
1b
1Y
0-
12
1&
15
1)
18
10
1,
0*
06
0'
03
0N
1J
0I
0V
0H
0W
1[
1T
0d
0\
0X
0a
0K
1Q
1a
#810000
0!
0A
0B
#815000
1!
1A
1B
0]
1R
0L
0e
0Y
1M
1-
17
1/
1+
02
0&
08
00
0,
1*
16
0(
04
1'
13
1O
0J
0S
1V
1H
0[
0T
1c
1`
1P
0a
1d
1X
#820000
0!
0A
0B
#825000
1!
1A
1B
1e
0b
1Y
0-
12
1&
05
0)
18
10
1,
0c
0`
1Z
1U
0P
0H
0Q
0d
1\
1E
#830000
0!
0A
0B
#835000
1!
1A
1B
1]
0R
0e
0M
1G
1-
11
1.
19
07
0/
0+
08
00
0,
1(
14
0'
03
1S
0O
1N
0V
0Z
0U
1I
0X
0\
0E
#840000
0!
0A
0B
#845000
1!
1A
1B
0]
0Y
0G
01
0.
09
02
0&
1'
13
1V
1H
1W
1a
1K
1d
1\
1X
#850000
0!
0A
0B
#855000
1!
1A
1B
1]
1L
1e
1b
1Y
0-
12
1&
15
1)
18
10
1,
0*
06
0'
03
0N
1J
0I
0V
0H
0W
1[
1T
0d
0\
0X
0a
0K
1Q
1a
#860000
0!
0A
0B
#865000
1!
1A
1B
0]
1R
0L
0e
0Y
1M
1-
17
1/
1+
02
0&
08
00
0,
1*
16
0(
04
1'
13
1O
0J
0S
1V
1H
0[
0T
1c
1`
1P
0a
1d
1X
#870000
0!
0A
0B
#875000
1!
1A
1B
1e
0b
1Y
0-
12
1&
05
0)
18
10
1,
0c
0`
1Z
1U
0P
0H
0Q
0d
1\
1E
#880000
0!
0A
0B
#885000
1!
1A
1B
1]
0R
0e
0M
1G
1-
11
1.
19
07
0/
0+
08
00
0,
1(
14
0'
03
1S
0O
1N
0V
0Z
0U
1I
0X
0\
0E
#890000
0!
0A
0B
#895000
1!
1A
1B
0]
0Y
0G
01
0.
09
02
0&
1'
13
1V
1H
1W
1a
1K
1d
1\
1X
#900000
0!
0A
0B
#905000
1!
1A
1B
1]
1L
1e
1b
1Y
0-
12
1&
15
1)
18
10
1,
0*
06
0'
03
0N
1J
0I
0V
0H
0W
1[
1T
0d
0\
0X
0a
0K
1Q
1a
#910000
0!
0A
0B
#915000
1!
1A
1B
0]
1R
0L
0e
0Y
1M
1-
17
1/
1+
02
0&
08
00
0,
1*
16
0(
04
1'
13
1O
0J
0S
1V
1H
0[
0T
1c
1`
1P
0a
1d
1X
#920000
0!
0A
0B
#925000
1!
1A
1B
1e
0b
1Y
0-
12
1&
05
0)
18
10
1,
0c
0`
1Z
1U
0P
0H
0Q
0d
1\
1E
#930000
0!
0A
0B
#935000
1!
1A
1B
1]
0R
0e
0M
1G
1-
11
1.
19
07
0/
0+
08
00
0,
1(
14
0'
03
1S
0O
1N
0V
0Z
0U
1I
0X
0\
0E
#940000
0!
0A
0B
#945000
1!
1A
1B
0]
0Y
0G
01
0.
09
02
0&
1'
13
1V
1H
1W
1a
1K
1d
1\
1X
#950000
0!
0A
0B
#955000
1!
1A
1B
1]
1L
1e
1b
1Y
0-
12
1&
15
1)
18
10
1,
0*
06
0'
03
0N
1J
0I
0V
0H
0W
1[
1T
0d
0\
0X
0a
0K
1Q
1a
#960000
0!
0A
0B
#965000
1!
1A
1B
0]
1R
0L
0e
0Y
1M
1-
17
1/
1+
02
0&
08
00
0,
1*
16
0(
04
1'
13
1O
0J
0S
1V
1H
0[
0T
1c
1`
1P
0a
1d
1X
#970000
0!
0A
0B
#975000
1!
1A
1B
1e
0b
1Y
0-
12
1&
05
0)
18
10
1,
0c
0`
1Z
1U
0P
0H
0Q
0d
1\
1E
#980000
0!
0A
0B
#985000
1!
1A
1B
1]
0R
0e
0M
1G
1-
11
1.
19
07
0/
0+
08
00
0,
1(
14
0'
03
1S
0O
1N
0V
0Z
0U
1I
0X
0\
0E
#990000
0!
0A
0B
#995000
1!
1A
1B
0]
0Y
0G
01
0.
09
02
0&
1'
13
1V
1H
1W
1a
1K
1d
1\
1X
