lab4_template_de1soc_guo_ricky/simulation_wave/swap_memory_sim/simulation/qsim/swap_memory_sim.msim.vcd
$comment
	File created using the following command:
		vcd file swap_memory_sim.msim.vcd -direction
$end
$date
	Tue Jun 20 17:58:52 2023
$end
$version
	ModelSim Version 10.5b
$end
$timescale
	1ps
$end

$scope module swap_memory_sim_vlg_vec_tst $end
$var reg 1 ! clock $end
$var reg 8 " data_in [7:0] $end
$var reg 1 # reset $end
$var reg 24 $ skey [23:0] $end
$var reg 1 % start $end
$var wire 1 & address [7] $end
$var wire 1 ' address [6] $end
$var wire 1 ( address [5] $end
$var wire 1 ) address [4] $end
$var wire 1 * address [3] $end
$var wire 1 + address [2] $end
$var wire 1 , address [1] $end
$var wire 1 - address [0] $end
$var wire 1 . data_out [7] $end
$var wire 1 / data_out [6] $end
$var wire 1 0 data_out [5] $end
$var wire 1 1 data_out [4] $end
$var wire 1 2 data_out [3] $end
$var wire 1 3 data_out [2] $end
$var wire 1 4 data_out [1] $end
$var wire 1 5 data_out [0] $end
$var wire 1 6 finish $end
$var wire 1 7 write_enable $end

$scope module i1 $end
$var wire 1 8 gnd $end
$var wire 1 9 vcc $end
$var wire 1 : unknown $end
$var tri1 1 ; devclrn $end
$var tri1 1 < devpor $end
$var tri1 1 = devoe $end
$var wire 1 > ~QUARTUS_CREATED_GND~I_combout $end
$var wire 1 ? clock~input_o $end
$var wire 1 @ clock~inputCLKENA0_outclk $end
$var wire 1 A start~input_o $end
$var wire 1 B Equal10~0_combout $end
$var wire 1 C var_i[0]~0_combout $end
$var wire 1 D Add2~1_sumout $end
$var wire 1 E var_i[1]~feeder_combout $end
$var wire 1 F Add2~2 $end
$var wire 1 G Add2~5_sumout $end
$var wire 1 H Add2~6 $end
$var wire 1 I Add2~9_sumout $end
$var wire 1 J Add2~10 $end
$var wire 1 K Add2~13_sumout $end
$var wire 1 L Add2~14 $end
$var wire 1 M Add2~17_sumout $end
$var wire 1 N Add2~18 $end
$var wire 1 O Add2~21_sumout $end
$var wire 1 P var_i[6]~feeder_combout $end
$var wire 1 Q var_i[6]~DUPLICATE_q $end
$var wire 1 R Add2~22 $end
$var wire 1 S Add2~25_sumout $end
$var wire 1 T Equal0~0_combout $end
$var wire 1 U Equal0~1_combout $end
$var wire 1 V state[8]~DUPLICATE_q $end
$var wire 1 W Equal4~0_combout $end
$var wire 1 X Equal4~1_combout $end
$var wire 1 Y Equal11~0_combout $end
$var wire 1 Z state~1_combout $end
$var wire 1 [ Equal12~0_combout $end
$var wire 1 \ Selector1~2_combout $end
$var wire 1 ] Equal2~0_combout $end
$var wire 1 ^ Equal6~0_combout $end
$var wire 1 _ state[5]~DUPLICATE_q $end
$var wire 1 ` Equal2~1_combout $end
$var wire 1 a Equal1~0_combout $end
$var wire 1 b Equal11~1_combout $end
$var wire 1 c Selector1~0_combout $end
$var wire 1 d Selector1~1_combout $end
$var wire 1 e WideNor0~2_combout $end
$var wire 1 f Equal2~2_combout $end
$var wire 1 g WideNor0~3_combout $end
$var wire 1 h WideNor0~4_combout $end
$var wire 1 i WideNor0~combout $end
$var wire 1 j Selector2~0_combout $end
$var wire 1 k Equal3~0_combout $end
$var wire 1 l Equal3~1_combout $end
$var wire 1 m WideNor0~0_combout $end
$var wire 1 n WideNor0~1_combout $end
$var wire 1 o state[2]~DUPLICATE_q $end
$var wire 1 p Equal9~0_combout $end
$var wire 1 q Equal7~0_combout $end
$var wire 1 r state~0_combout $end
$var wire 1 s state[0]~DUPLICATE_q $end
$var wire 1 t reset~input_o $end
$var wire 1 u var_j~0_combout $end
$var wire 1 v data_in[0]~input_o $end
$var wire 1 w temp[6]~0_combout $end
$var wire 1 x skey[16]~input_o $end
$var wire 1 y skey[8]~input_o $end
$var wire 1 z skey[0]~input_o $end
$var wire 1 { Mod0|auto_generated|divider|divider|op_5~5_sumout $end
$var wire 1 | Mod0|auto_generated|divider|divider|op_3~5_sumout $end
$var wire 1 } Mod0|auto_generated|divider|divider|op_2~2 $end
$var wire 1 ~ Mod0|auto_generated|divider|divider|op_2~9_sumout $end
$var wire 1 !! Mod0|auto_generated|divider|divider|op_2~10 $end
$var wire 1 "! Mod0|auto_generated|divider|divider|op_2~5_sumout $end
$var wire 1 #! Mod0|auto_generated|divider|divider|op_2~1_sumout $end
$var wire 1 $! Mod0|auto_generated|divider|divider|op_3~6 $end
$var wire 1 %! Mod0|auto_generated|divider|divider|op_3~14 $end
$var wire 1 &! Mod0|auto_generated|divider|divider|op_3~10_cout $end
$var wire 1 '! Mod0|auto_generated|divider|divider|op_3~1_sumout $end
$var wire 1 (! Mod0|auto_generated|divider|divider|StageOut[6]~6_combout $end
$var wire 1 )! Mod0|auto_generated|divider|divider|op_3~13_sumout $end
$var wire 1 *! Mod0|auto_generated|divider|divider|StageOut[3]~8_combout $end
$var wire 1 +! Mod0|auto_generated|divider|divider|StageOut[3]~9_combout $end
$var wire 1 ,! Mod0|auto_generated|divider|divider|op_4~2 $end
$var wire 1 -! Mod0|auto_generated|divider|divider|op_4~10 $end
$var wire 1 .! Mod0|auto_generated|divider|divider|op_4~14_cout $end
$var wire 1 /! Mod0|auto_generated|divider|divider|op_4~5_sumout $end
$var wire 1 0! Mod0|auto_generated|divider|divider|op_4~9_sumout $end
$var wire 1 1! Mod0|auto_generated|divider|divider|StageOut[6]~7_combout $end
$var wire 1 2! Mod0|auto_generated|divider|divider|op_4~1_sumout $end
$var wire 1 3! Mod0|auto_generated|divider|divider|op_5~6 $end
$var wire 1 4! Mod0|auto_generated|divider|divider|op_5~14 $end
$var wire 1 5! Mod0|auto_generated|divider|divider|op_5~10_cout $end
$var wire 1 6! Mod0|auto_generated|divider|divider|op_5~1_sumout $end
$var wire 1 7! var_i[2]~DUPLICATE_q $end
$var wire 1 8! Mod0|auto_generated|divider|divider|op_6~2 $end
$var wire 1 9! Mod0|auto_generated|divider|divider|op_6~9_sumout $end
$var wire 1 :! Mod0|auto_generated|divider|divider|StageOut[12]~2_combout $end
$var wire 1 ;! Mod0|auto_generated|divider|divider|StageOut[9]~4_combout $end
$var wire 1 <! Mod0|auto_generated|divider|divider|op_5~13_sumout $end
$var wire 1 =! Mod0|auto_generated|divider|divider|StageOut[9]~5_combout $end
$var wire 1 >! Mod0|auto_generated|divider|divider|op_6~10 $end
$var wire 1 ?! Mod0|auto_generated|divider|divider|op_6~14_cout $end
$var wire 1 @! Mod0|auto_generated|divider|divider|op_6~5_sumout $end
$var wire 1 A! Mod0|auto_generated|divider|divider|StageOut[12]~3_combout $end
$var wire 1 B! Mod0|auto_generated|divider|divider|op_6~1_sumout $end
$var wire 1 C! Mod0|auto_generated|divider|divider|op_7~6 $end
$var wire 1 D! Mod0|auto_generated|divider|divider|op_7~14 $end
$var wire 1 E! Mod0|auto_generated|divider|divider|op_7~10_cout $end
$var wire 1 F! Mod0|auto_generated|divider|divider|op_7~1_sumout $end
$var wire 1 G! Mod0|auto_generated|divider|divider|op_7~5_sumout $end
$var wire 1 H! var_i[0]~DUPLICATE_q $end
$var wire 1 I! Mod0|auto_generated|divider|divider|op_8~6 $end
$var wire 1 J! Mod0|auto_generated|divider|divider|op_8~9_sumout $end
$var wire 1 K! Mod0|auto_generated|divider|divider|op_8~5_sumout $end
$var wire 1 L! Mod0|auto_generated|divider|divider|StageOut[15]~0_combout $end
$var wire 1 M! Mod0|auto_generated|divider|divider|op_7~13_sumout $end
$var wire 1 N! Mod0|auto_generated|divider|divider|StageOut[15]~1_combout $end
$var wire 1 O! Mod0|auto_generated|divider|divider|op_8~10 $end
$var wire 1 P! Mod0|auto_generated|divider|divider|op_8~14_cout $end
$var wire 1 Q! Mod0|auto_generated|divider|divider|op_8~1_sumout $end
$var wire 1 R! Mux5~2_combout $end
$var wire 1 S! Mux5~0_combout $end
$var wire 1 T! Mux7~0_combout $end
$var wire 1 U! Add0~1_sumout $end
$var wire 1 V! address~0_combout $end
$var wire 1 W! data_in[1]~input_o $end
$var wire 1 X! var_j~1_combout $end
$var wire 1 Y! skey[9]~input_o $end
$var wire 1 Z! skey[1]~input_o $end
$var wire 1 [! skey[17]~input_o $end
$var wire 1 \! Mux6~0_combout $end
$var wire 1 ]! Add0~2 $end
$var wire 1 ^! Add0~3 $end
$var wire 1 _! Add0~5_sumout $end
$var wire 1 `! address~1_combout $end
$var wire 1 a! data_in[2]~input_o $end
$var wire 1 b! var_j~2_combout $end
$var wire 1 c! skey[10]~input_o $end
$var wire 1 d! skey[18]~input_o $end
$var wire 1 e! skey[2]~input_o $end
$var wire 1 f! Mux5~1_combout $end
$var wire 1 g! Add0~6 $end
$var wire 1 h! Add0~7 $end
$var wire 1 i! Add0~9_sumout $end
$var wire 1 j! address~2_combout $end
$var wire 1 k! data_in[3]~input_o $end
$var wire 1 l! var_j~3_combout $end
$var wire 1 m! skey[11]~input_o $end
$var wire 1 n! skey[3]~input_o $end
$var wire 1 o! skey[19]~input_o $end
$var wire 1 p! Mux4~0_combout $end
$var wire 1 q! Add0~10 $end
$var wire 1 r! Add0~11 $end
$var wire 1 s! Add0~13_sumout $end
$var wire 1 t! address~3_combout $end
$var wire 1 u! data_in[4]~input_o $end
$var wire 1 v! var_j~4_combout $end
$var wire 1 w! skey[4]~input_o $end
$var wire 1 x! skey[12]~input_o $end
$var wire 1 y! skey[20]~input_o $end
$var wire 1 z! Mux3~0_combout $end
$var wire 1 {! Add0~14 $end
$var wire 1 |! Add0~15 $end
$var wire 1 }! Add0~17_sumout $end
$var wire 1 ~! address~4_combout $end
$var wire 1 !" data_in[5]~input_o $end
$var wire 1 "" var_j~5_combout $end
$var wire 1 #" skey[13]~input_o $end
$var wire 1 $" skey[5]~input_o $end
$var wire 1 %" skey[21]~input_o $end
$var wire 1 &" Mux2~0_combout $end
$var wire 1 '" Add0~18 $end
$var wire 1 (" Add0~19 $end
$var wire 1 )" Add0~21_sumout $end
$var wire 1 *" address~5_combout $end
$var wire 1 +" data_in[6]~input_o $end
$var wire 1 ," skey[6]~input_o $end
$var wire 1 -" skey[14]~input_o $end
$var wire 1 ." skey[22]~input_o $end
$var wire 1 /" Mux1~0_combout $end
$var wire 1 0" var_j~6_combout $end
$var wire 1 1" Add0~22 $end
$var wire 1 2" Add0~23 $end
$var wire 1 3" Add0~25_sumout $end
$var wire 1 4" address~6_combout $end
$var wire 1 5" data_in[7]~input_o $end
$var wire 1 6" var_j~7_combout $end
$var wire 1 7" skey[15]~input_o $end
$var wire 1 8" skey[23]~input_o $end
$var wire 1 9" skey[7]~input_o $end
$var wire 1 :" Mux0~0_combout $end
$var wire 1 ;" Add0~26 $end
$var wire 1 <" Add0~27 $end
$var wire 1 =" Add0~29_sumout $end
$var wire 1 >" address~7_combout $end
$var wire 1 ?" temp2[1]~0_combout $end
$var wire 1 @" data_out~0_combout $end
$var wire 1 A" data_out~1_combout $end
$var wire 1 B" data_out~2_combout $end
$var wire 1 C" data_out~3_combout $end
$var wire 1 D" data_out~4_combout $end
$var wire 1 E" data_out~5_combout $end
$var wire 1 F" data_out~6_combout $end
$var wire 1 G" data_out~7_combout $end
$var wire 1 H" var_j [7] $end
$var wire 1 I" var_j [6] $end
$var wire 1 J" var_j [5] $end
$var wire 1 K" var_j [4] $end
$var wire 1 L" var_j [3] $end
$var wire 1 M" var_j [2] $end
$var wire 1 N" var_j [1] $end
$var wire 1 O" var_j [0] $end
$var wire 1 P" temp2 [7] $end
$var wire 1 Q" temp2 [6] $end
$var wire 1 R" temp2 [5] $end
$var wire 1 S" temp2 [4] $end
$var wire 1 T" temp2 [3] $end
$var wire 1 U" temp2 [2] $end
$var wire 1 V" temp2 [1] $end
$var wire 1 W" temp2 [0] $end
$var wire 1 X" temp [7] $end
$var wire 1 Y" temp [6] $end
$var wire 1 Z" temp [5] $end
$var wire 1 [" temp [4] $end
$var wire 1 \" temp [3] $end
$var wire 1 ]" temp [2] $end
$var wire 1 ^" temp [1] $end
$var wire 1 _" temp [0] $end
$var wire 1 `" state [10] $end
$var wire 1 a" state [9] $end
$var wire 1 b" state [8] $end
$var wire 1 c" state [7] $end
$var wire 1 d" state [6] $end
$var wire 1 e" state [5] $end
$var wire 1 f" state [4] $end
$var wire 1 g" state [3] $end
$var wire 1 h" state [2] $end
$var wire 1 i" state [1] $end
$var wire 1 j" state [0] $end
$var wire 1 k" var_i [7] $end
$var wire 1 l" var_i [6] $end
$var wire 1 m" var_i [5] $end
$var wire 1 n" var_i [4] $end
$var wire 1 o" var_i [3] $end
$var wire 1 p" var_i [2] $end
$var wire 1 q" var_i [1] $end
$var wire 1 r" var_i [0] $end
$upscope $end
$upscope $end
$enddefinitions $end
#0
$dumpvars
0!
b1100110 "
0#
b11110011000111001001 $
0%
0-
0,
0+
0*
0)
0(
0'
0&
05
04
03
02
01
00
0/
0.
06
07
08
19
x:
1;
1<
1=
0>
0?
0@
0A
0B
1C
0D
0E
0F
0G
0H
0I
0J
0K
0L
0M
0N
0O
0P
0Q
0R
0S
0T
0U
0V
1W
0X
0Y
0Z
0[
1\
1]
0^
0_
1`
0a
0b
0c
1d
0e
0f
0g
0h
1i
1j
0k
0l
0m
0n
0o
0p
0q
0r
0s
0t
0u
0v
0w
1x
1y
1z
1{
1|
0}
0~
0!!
1"!
1#!
0$!
0%!
0&!
1'!
0(!
0)!
0*!
0+!
0,!
0-!
0.!
1/!
00!
01!
12!
03!
04!
05!
16!
07!
08!
09!
0:!
0;!
0<!
0=!
0>!
0?!
1@!
0A!
1B!
0C!
0D!
0E!
1F!
1G!
0H!
0I!
0J!
1K!
0L!
0M!
0N!
0O!
0P!
1Q!
0R!
0S!
1T!
1U!
0V!
1W!
0X!
0Y!
0Z!
1[!
1\!
0]!
0^!
1_!
0`!
1a!
0b!
0c!
1d!
0e!
1f!
0g!
0h!
1i!
0j!
0k!
0l!
0m!
1n!
1o!
1p!
0q!
0r!
1s!
0t!
0u!
0v!
0w!
1x!
0y!
0z!
0{!
0|!
0}!
0~!
1!"
0""
1#"
0$"
0%"
0&"
0'"
0("
0)"
0*"
1+"
1,"
0-"
0."
0/"
00"
01"
02"
03"
04"
05"
06"
07"
08"
19"
0:"
0;"
0<"
0="
0>"
0?"
0@"
0A"
0B"
0C"
0D"
0E"
0F"
0G"
0O"
0N"
0M"
0L"
0K"
0J"
0I"
0H"
0W"
0V"
0U"
0T"
0S"
0R"
0Q"
0P"
0_"
0^"
0]"
0\"
0["
0Z"
0Y"
0X"
0j"
0i"
0h"
0g"
0f"
0e"
0d"
0c"
0b"
0a"
0`"
0r"
0q"
0p"
0o"
0n"
0m"
0l"
0k"
$end
#5000
1!
1?
1@
1b"
1a"
1`"
1V
1f
0W
0]
1g
1a
0i
#10000
0!
0?
0@
#15000
1!
1?
1@
#20000
1%
0!
1A
0?
0@
0d
0\
#25000
1!
1?
1@
0a"
0`"
0a
1]
1c
0j
1d
#30000
0!
0?
0@
#35000
1!
1?
1@
0b"
1a"
0V
0f
1k
0g
0c
1i
1g
0d
1l
0i
1j
1d
1\
0j
0d
0\
#40000
0%
0!
0A
0?
0@
#45000
1!
1?
1@
1f"
0a"
0k
1W
1w
0`
0]
0g
1h
0l
1X
#50000
0!
0?
0@
#55000
1!
1?
1@
1Y"
1Z"
1]"
1^"
0f"
1d"
1m
0h
0w
1h!
1r!
0X
1A"
0_!
1B"
0i!
1E"
1)"
1F"
13"
1/
10
13
14
1{!
1n
1i!
0s!
1}!
#60000
0!
0?
0@
#65000
1!
1?
1@
1I"
1J"
1K"
1M"
1O"
1o
0d"
1h"
0m
1`
1]
1u
1b!
1v!
1""
10"
14"
1*"
1~!
1j!
1V!
1-
1+
1)
1(
1'
1<"
12"
1'"
1q!
1^!
1^
0n
1i
03"
0)"
0}!
0i!
0U!
1n
0i
1="
13"
1)"
1s!
1_!
1j
1d
1\
0j
0d
0\
#70000
0!
0?
0@
#75000
1!
1?
1@
1_
1e"
1?"
1q
1m
0`
0]
0^
1r
#80000
0!
0?
0@
#85000
1!
1?
1@
1Q"
1R"
1U"
1V"
0_
0e"
1j"
1s
17
0W
0?"
0q
0m
1`
1]
0n
1i
0r
1e
0i
1j
1d
1\
0j
0d
0\
#90000
0!
0?
0@
#95000
1!
1?
1@
0o
1g"
0h"
0j"
0s
07
1p
04"
0*"
0~!
0j!
0V!
0-
0+
0)
0(
0'
1r
#100000
0!
0?
0@
#105000
1!
1?
1@
1j"
1s
17
0p
0e
1B
0r
#110000
0!
0?
0@
#115000
1!
1?
1@
0g"
1i"
0j"
0s
07
1W
0`
0]
1Y
0B
1b
1h
1i
0i
1c
1j
1d
1\
0j
0\
#120000
0!
0?
0@
#125000
1!
1?
1@
1H!
1a"
1r"
0i"
0h
1`
1]
0Y
1D
1k
0W
1S!
1R!
1I!
0K!
0C
1V!
1-
1J!
1&"
1z!
0p!
0f!
0\!
0b
1g
1i
1l
1E
0i
0c
1g!
0h!
0q!
0'"
1("
11"
1j
1\
0_!
1i!
0s!
1}!
0)"
0{!
1;"
1s!
03"
0d
0j
0\
0}!
0="
#130000
0!
0?
0@
#135000
1!
1?
1@
1f"
0a"
0k
1W
1w
0`
0]
0g
1h
0l
1X
#140000
0!
0?
0@
#145000
1!
1?
1@
0f"
1d"
1m
0h
0w
0X
1n
#150000
0!
0?
0@
#155000
1!
1?
1@
0I"
0J"
0K"
1L"
0O"
1o
0d"
1h"
0m
1`
1]
0u
1l!
0v!
0""
00"
1t!
1j!
0V!
0-
1+
1*
0<"
01"
0("
1{!
0^!
1^
0n
1i
13"
1)"
1}!
0s!
1U!
1'"
0g!
1n
0i
1="
03"
0)"
0}!
1_!
1j
1d
1\
1)"
0i!
0j
0d
0\
#160000
0!
0?
0@
#165000
1!
1?
1@
1_
1e"
1?"
1q
1m
0`
0]
0^
1r
#170000
0!
0?
0@
#175000
1!
1?
1@
0_
0e"
1j"
1s
17
0W
0?"
0q
0m
1`
1]
0n
1i
0r
1e
0i
1j
1d
1\
0j
0d
0\
#180000
0!
0?
0@
#185000
1!
1?
1@
0o
1g"
0h"
0j"
0s
07
1p
0t!
0j!
1V!
1-
0+
0*
1r
#190000
0!
0?
0@
#195000
1!
1?
1@
1j"
1s
17
0p
0e
1B
0r
#200000
0!
0?
0@
#205000
1!
1?
1@
0g"
1i"
0j"
0s
07
1W
0`
0]
1Y
0B
1b
1h
1i
0i
1c
1j
1d
1\
0j
0\
#210000
0!
0?
0@
#215000
1!
1?
1@
0H!
1a"
1q"
0r"
0i"
0h
1`
1]
0Y
1O!
0J!
1C!
0G!
1k
0W
0S!
0I!
1K!
1C
1`!
0V!
0-
1,
1P!
1M!
0O!
1J!
1:"
1/"
0&"
0z!
1p!
0b
1g
1i
1l
0Q!
0P!
0i
0c
0{!
1|!
0'"
11"
02"
0;"
1<"
1j
1\
1s!
1}!
0)"
13"
0="
1Q!
01"
1S!
0R!
1)"
0d
0j
0\
0:"
0/"
0p!
0T!
0S!
1R!
03"
1:"
1/"
1p!
1T!
1{!
0|!
0<"
0U!
0s!
13"
1="
0{!
1|!
1<"
1U!
1s!
03"
0="
#220000
0!
0?
0@
#225000
1!
1?
1@
1f"
0a"
0k
1W
1w
0`
0]
0g
1h
0l
1X
#230000
0!
0?
0@
#235000
1!
1?
1@
0f"
1d"
1m
0h
0w
0X
1n
#240000
0!
0?
0@
#245000
1!
1?
1@
1J"
1K"
0M"
1N"
1O"
1o
0d"
1h"
0m
1`
1]
1u
1X!
0b!
1v!
1""
1*"
1~!
1t!
1V!
1-
1*
1)
1(
12"
1'"
0r!
1h!
1^!
1^
0n
1i
0)"
0}!
1i!
0_!
0U!
1q!
1n
0i
13"
1)"
0s!
0i!
1_!
1j
1d
1\
1s!
0j
0d
0\
#250000
0!
0?
0@
#255000
1!
1?
1@
1_
1e"
1?"
1q
1m
0`
0]
0^
1r
#260000
0!
0?
0@
#265000
1!
1?
1@
0_
0e"
1j"
1s
17
0W
0?"
0q
0m
1`
1]
0n
1i
0r
1e
0i
1j
1d
1\
0j
0d
0\
#270000
0!
0?
0@
#275000
1!
1?
1@
0o
1g"
0h"
0j"
0s
07
1p
0*"
0~!
0t!
0V!
0-
0*
0)
0(
1r
#280000
0!
0?
0@
#285000
1!
1?
1@
1j"
1s
17
0p
0e
1B
0r
#290000
0!
0?
0@
#295000
1!
1?
1@
0g"
1i"
0j"
0s
07
1W
0`
0]
1Y
0B
1b
1h
1i
0i
1c
1j
1d
1\
0j
0\
#300000
0!
0?
0@
#305000
1!
1?
1@
1H!
1a"
1r"
0i"
0h
1`
1]
0Y
1F
0D
1k
0W
1S!
0R!
1I!
0K!
0C
1V!
1-
1O!
0J!
0:"
0/"
0p!
0T!
0b
1g
1i
1G
1l
0E
1P!
0i
0c
0^!
1{!
0|!
1;"
0<"
1j
1\
1U!
0s!
03"
1="
0Q!
0_!
0d
0j
0\
0S!
1p!
1f!
1\!
1T!
1^!
0q!
1r!
0{!
1|!
0U!
1_!
1i!
1s!
1g!
0_!
1q!
0i!
1{!
0s!
1}!
#310000
0!
0?
0@
#315000
1!
1?
1@
1f"
0a"
0k
1W
1w
0`
0]
0g
1h
0l
1X
#320000
1#
0!
1t
0?
0@
1?"
0""
0v!
0l!
0X!
0u
0^!
0g!
0|!
11"
02"
1U!
1_!
1s!
0}!
0)"
0q!
0'"
0_!
1i!
1}!
01"
0s!
1)"
0;"
13"
0="
#325000
1!
1?
1@
0Q"
0R"
0U"
0V"
0Y"
0J"
0Z"
0K"
0L"
0]"
0N"
0^"
0O"
0f"
1d"
1m
0h
0h!
1q!
0r!
0X
0A"
1_!
0B"
0i!
0E"
0)"
0F"
03"
0/
00
03
04
0q!
1n
1i!
0{!
1s!
0}!
#330000
0!
0?
0@
#335000
1!
1?
1@
1L"
1M"
1N"
1O"
1o
0d"
1h"
0m
1`
1]
1t!
1j!
1+
1*
1^
0n
1i
1n
0i
1j
1d
1\
0j
0d
0\
#340000
0#
0!
0t
0?
0@
0?"
1l!
1b!
1X!
0w
1u
1^!
1h!
1r!
1|!
0U!
0_!
0i!
0s!
1_!
1i!
1s!
1}!
#345000
1!
1?
1@
1_
1e"
1?"
1q
1m
0`
0]
0^
1r
#350000
0!
0?
0@
#355000
1!
1?
1@
1Q"
1R"
1U"
1V"
0_
0e"
1j"
1s
17
0W
0?"
0q
0m
1`
1]
0n
1i
0r
1e
0i
1j
1d
1\
0j
0d
0\
#360000
0!
0?
0@
#365000
1!
1?
1@
0o
1g"
0h"
0j"
0s
07
1p
0t!
0j!
1F"
1E"
1B"
1A"
14
13
10
1/
0+
0*
1r
#370000
0!
0?
0@
#375000
1!
1?
1@
1j"
1s
17
0p
0e
1B
0r
#380000
0!
0?
0@
#385000
1!
1?
1@
0g"
1i"
0j"
0s
07
1W
0`
0]
1Y
0B
0F"
0E"
0B"
0A"
04
03
00
0/
1b
1h
1i
0i
1c
1j
1d
1\
0j
0\
#390000
0!
0?
0@
#395000
1!
1?
1@
0H!
17!
1a"
1p"
0q"
0r"
0i"
0h
1`
1]
0Y
0F
0O!
1J!
0C!
1G!
1H
1k
0W
1N!
1D!
0M!
18!
0B!
0I!
1K!
1C
0`!
0G
1j!
0V!
0-
1+
0,
0H
0D!
1M!
1I
1E!
19!
0J!
1S!
0b
1g
1i
1G
1l
0I
0E!
0F!
0i
0c
0p!
0f!
0\!
0T!
1R!
1j
1\
1F!
1&"
1z!
1T!
0^!
1g!
0h!
1q!
0r!
1{!
0|!
1J!
1U!
0_!
0i!
0s!
0d
0j
0\
0g!
1'"
0R!
1^!
0J!
1_!
0}!
0U!
1)"
0q!
11"
1g!
1R!
0&"
0z!
0T!
1i!
0)"
0_!
0{!
1q!
0^!
0'"
01"
1&"
1z!
1T!
1s!
13"
0i!
1U!
1}!
1)"
1{!
0g!
1^!
0s!
1_!
03"
0U!
1'"
0q!
1g!
0}!
1i!
0_!
11"
0{!
1q!
0)"
1s!
0i!
0'"
1{!
13"
1}!
0s!
01"
1'"
1)"
0}!
11"
03"
0)"
13"
#400000
0!
0?
0@
#405000
1!
1?
1@
1f"
0a"
0k
1W
1w
0`
0]
0g
1h
0l
1X
#410000
0!
0?
0@
#415000
1!
1?
1@
1Y"
1Z"
1]"
1^"
0f"
1d"
1m
0h
0w
0g!
1h!
0q!
1r!
01"
12"
1;"
0X
1A"
1_!
1B"
1i!
1E"
1)"
1F"
03"
1/
10
13
14
1n
1="
#420000
0!
0?
0@
#425000
1!
1?
1@
1H"
1J"
0L"
0O"
1o
0d"
1h"
0m
1`
1]
0u
0l!
1""
16"
1>"
1*"
1`!
1,
1(
1&
11"
0{!
0^!
1^
0n
1i
0="
0)"
1s!
1U!
0'"
1n
0i
13"
1}!
0_!
1j
1d
1\
01"
1)"
0j
0d
0\
03"
#430000
0!
0?
0@
#435000
1!
1?
1@
1_
1e"
1?"
1q
1m
0`
0]
0^
1r
#440000
0!
0?
0@
#445000
1!
1?
1@
0_
0e"
1j"
1s
17
0W
0?"
0q
0m
1`
1]
0n
1i
0r
1e
0i
1j
1d
1\
0j
0d
0\
#450000
0!
0?
0@
#455000
1!
1?
1@
0o
1g"
0h"
0j"
0s
07
1p
0>"
0*"
0`!
0,
0(
0&
1r
#460000
0!
0?
0@
#465000
1!
1?
1@
1j"
1s
17
0p
0e
1B
0r
#470000
0!
0?
0@
#475000
1!
1?
1@
0g"
1i"
0j"
0s
07
1W
0`
0]
1Y
0B
1b
1h
1i
0i
1c
1j
1d
1\
0j
0\
#480000
0!
0?
0@
#485000
1!
1?
1@
1H!
1a"
1r"
0i"
0h
1`
1]
0Y
1D
1k
0W
1I!
0K!
0C
1V!
1-
1J!
0S!
0R!
0b
1g
1i
1l
1E
0i
0c
0&"
0z!
1p!
1f!
1\!
1R!
1j
1\
1:"
1/"
0f!
0\!
1q!
1{!
1_!
0i!
0s!
0}!
0)"
0d
0j
0\
0q!
0;"
1<"
1s!
1}!
0_!
1i!
13"
1="
0s!
#490000
0!
0?
0@
#495000
1!
1?
1@
1f"
0a"
0k
1W
1w
0`
0]
0g
1h
0l
1X
#500000
0!
0?
0@
#505000
1!
1?
1@
0f"
1d"
1m
0h
0w
0X
1n
#510000
0!
0?
0@
#515000
1!
1?
1@
1I"
0J"
1K"
0N"
1O"
1o
0d"
1h"
0m
1`
1]
1u
0X!
1v!
0""
10"
1>"
14"
1~!
1)
1'
1&
1;"
02"
1'"
0h!
1^!
1^
0n
1i
03"
1)"
0}!
1_!
0U!
0;"
11"
1g!
1n
0i
0="
13"
0)"
0i!
0_!
1j
1d
1\
1;"
1="
03"
1i!
0j
0d
0\
0="
#520000
0!
0?
0@
#525000
1!
1?
1@
1_
1e"
1?"
1q
1m
0`
0]
0^
1r
#530000
0!
0?
0@
#535000
1!
1?
1@
0_
0e"
1j"
1s
17
0W
0?"
0q
0m
1`
1]
0n
1i
0r
1e
0i
1j
1d
1\
0j
0d
0\
#540000
0!
0?
0@
#545000
1!
1?
1@
0o
1g"
0h"
0j"
0s
07
1p
0>"
04"
0~!
0)
0'
0&
1r
#550000
0!
0?
0@
#555000
1!
1?
1@
1j"
1s
17
0p
0e
1B
0r
#560000
0!
0?
0@
#565000
1!
1?
1@
0g"
1i"
0j"
0s
07
1W
0`
0]
1Y
0B
1b
1h
1i
0i
1c
1j
1d
1\
0j
0\
#570000
0!
0?
0@
#575000
1!
1?
1@
0H!
1a"
1q"
0r"
0i"
0h
1`
1]
0Y
1O!
0J!
1C!
0G!
1k
0W
0I!
1K!
1C
1`!
0V!
0-
1,
1D!
0M!
0O!
1J!
1S!
0b
1g
1i
1l
1E!
0i
0c
0:"
0/"
1&"
1z!
0p!
0R!
1j
1\
0F!
0&"
0z!
0T!
0{!
0'"
1("
01"
12"
0;"
1s!
1}!
1)"
13"
1="
0d
0j
0\
0("
11"
02"
0^!
0P!
0J!
0)"
0="
1U!
01"
0g!
1Q!
1R!
1)"
1_!
1&"
1z!
1T!
0S!
0R!
03"
0i!
0&"
0z!
1p!
1f!
1\!
1^!
1("
12"
0U!
0}!
0)"
1h!
11"
02"
1{!
0("
13"
1i!
0s!
1}!
1q!
1'"
01"
0i!
0}!
1)"
11"
1s!
0)"
03"
13"
#580000
0!
0?
0@
#585000
1!
1?
1@
1f"
0a"
0k
1W
1w
0`
0]
0g
1h
0l
1X
#590000
0!
0?
0@
#595000
1!
1?
1@
0f"
1d"
1m
0h
0w
0X
1n
#600000
0!
0?
0@
#605000
1!
1?
1@
0H"
0K"
1L"
0M"
1N"
0O"
1o
0d"
1h"
0m
1`
1]
0u
1X!
0b!
1l!
0v!
06"
14"
1t!
0j!
0+
1*
1'
0'"
1|!
0q!
1g!
0^!
1^
0n
1i
1="
1}!
0s!
1i!
0_!
1U!
01"
1'"
0{!
1q!
0g!
1n
0i
1)"
0}!
1s!
0i!
1_!
1j
1d
1\
11"
0'"
1{!
0q!
03"
0)"
1}!
0s!
1i!
0j
0d
0\
01"
1'"
0{!
13"
1)"
0}!
1s!
11"
0'"
03"
0)"
1}!
01"
13"
1)"
03"
#610000
0!
0?
0@
#615000
1!
1?
1@
1_
1e"
1?"
1q
1m
0`
0]
0^
1r
#620000
0!
0?
0@
#625000
1!
1?
1@
0_
0e"
1j"
1s
17
0W
0?"
0q
0m
1`
1]
0n
1i
0r
1e
0i
1j
1d
1\
0j
0d
0\
#630000
0!
0?
0@
#635000
1!
1?
1@
0o
1g"
0h"
0j"
0s
07
1p
04"
0t!
1j!
1+
0*
0'
1r
#640000
0!
0?
0@
#645000
1!
1?
1@
1j"
1s
17
0p
0e
1B
0r
#650000
0!
0?
0@
#655000
1!
1?
1@
0g"
1i"
0j"
0s
07
1W
0`
0]
1Y
0B
1b
1h
1i
0i
1c
1j
1d
1\
0j
0\
#660000
0!
0?
0@
