lab2_template_de1soc/template_de1soc/simulation_wave/keyboard_interface_sim/simulation/qsim/keyboard_interface_sim.msim.vcd
$comment
	File created using the following command:
		vcd file keyboard_interface_sim.msim.vcd -direction
$end
$date
	Fri Jun 09 12:23:01 2023
$end
$version
	ModelSim Version 10.5b
$end
$timescale
	1ps
$end

$scope module keyboard_interface_sim_vlg_vec_tst $end
$var reg 1 ! clk $end
$var reg 1 " data_ready $end
$var reg 1 # finish $end
$var reg 8 $ keyboard [7:0] $end
$var wire 1 % out_signal [2] $end
$var wire 1 & out_signal [1] $end
$var wire 1 ' out_signal [0] $end

$scope module i1 $end
$var wire 1 ( gnd $end
$var wire 1 ) vcc $end
$var wire 1 * unknown $end
$var tri1 1 + devclrn $end
$var tri1 1 , devpor $end
$var tri1 1 - devoe $end
$var wire 1 . keyboard[5]~input_o $end
$var wire 1 / ~QUARTUS_CREATED_GND~I_combout $end
$var wire 1 0 clk~input_o $end
$var wire 1 1 clk~inputCLKENA0_outclk $end
$var wire 1 2 keyboard[2]~input_o $end
$var wire 1 3 keyboard[1]~input_o $end
$var wire 1 4 keyboard[6]~input_o $end
$var wire 1 5 keyboard[4]~input_o $end
$var wire 1 6 keyboard[3]~input_o $end
$var wire 1 7 keyboard[7]~input_o $end
$var wire 1 8 Equal0~0_combout $end
$var wire 1 9 keyboard[0]~input_o $end
$var wire 1 : Equal8~0_combout $end
$var wire 1 ; Mux3~1_combout $end
$var wire 1 < Equal0~1_combout $end
$var wire 1 = Equal2~0_combout $end
$var wire 1 > Mux1~0_combout $end
$var wire 1 ? finish~input_o $end
$var wire 1 @ Mux1~1_combout $end
$var wire 1 A Mux3~0_combout $end
$var wire 1 B data_ready~input_o $end
$var wire 1 C Mux1~2_combout $end
$var wire 1 D Mux1~3_combout $end
$var wire 1 E Mux2~1_combout $end
$var wire 1 F Mux2~2_combout $end
$var wire 1 G Mux2~0_combout $end
$var wire 1 H Mux2~3_combout $end
$var wire 1 I Mux0~0_combout $end
$var wire 1 J Mux0~1_combout $end
$var wire 1 K Mux0~2_combout $end
$var wire 1 L Mux3~3_combout $end
$var wire 1 M Mux3~2_combout $end
$var wire 1 N state [3] $end
$var wire 1 O state [2] $end
$var wire 1 P state [1] $end
$var wire 1 Q state [0] $end
$upscope $end
$upscope $end
$enddefinitions $end
#0
$dumpvars
0!
0"
0#
b0 $
0'
0&
0%
0(
1)
x*
1+
1,
1-
0.
0/
00
01
02
03
04
05
06
07
08
09
0:
0;
0<
0=
0>
0?
0@
0A
0B
0C
0D
0E
0F
0G
0H
0I
1J
0K
0L
0M
0Q
0P
0O
0N
$end
#5000
1!
10
11
#10000
0!
00
01
#15000
1!
10
11
#20000
b1000000 $
b1000100 $
b1000101 $
0!
19
12
14
00
01
18
1L
0J
1G
1<
1M
#25000
1!
10
11
1Q
1'
1I
0G
#30000
0!
00
01
#35000
1!
10
11
#40000
b101 $
b1 $
b0 $
0!
09
02
04
00
01
08
0L
1J
1G
0<
0M
0J
0G
1K
1M
0K
#45000
1!
10
11
#50000
0!
00
01
#55000
1!
10
11
#60000
b1000000 $
b1000100 $
0!
12
14
00
01
18
1J
1G
0M
1K
#65000
1!
10
11
1N
0Q
0'
0G
1>
#70000
0!
00
01
#75000
1!
10
11
#80000
b100 $
b0 $
0!
02
04
00
01
08
#85000
1!
10
11
#90000
0!
00
01
#95000
1!
10
11
#100000
b10 $
b1000010 $
0!
13
14
00
01
1=
1:
0I
1F
0>
1H
0K
#105000
1!
10
11
0N
1P
1&
1I
1;
0F
#110000
0!
00
01
#115000
1!
10
11
#120000
b1000000 $
b0 $
0!
03
04
00
01
0=
0:
#125000
1!
10
11
#130000
0!
00
01
#135000
1!
10
11
#140000
b1 $
b101 $
b1000101 $
0!
19
12
14
00
01
18
1L
0J
1G
1<
1M
#145000
1!
10
11
1Q
1'
0G
#150000
0!
00
01
#155000
1!
10
11
#160000
b1000100 $
b1000000 $
b0 $
0!
09
02
04
00
01
08
0L
1G
0<
0M
0G
1M
#165000
1!
10
11
#170000
0!
00
01
#175000
1!
10
11
#180000
b10 $
b110 $
b1000110 $
0!
13
12
14
00
01
1:
1E
0;
0H
#185000
1!
10
11
0P
0&
#190000
0!
00
01
#195000
1!
10
11
#200000
b1000100 $
b1000000 $
b0 $
0!
03
02
04
00
01
0:
0E
#205000
1!
10
11
#210000
0!
00
01
#215000
1!
10
11
#220000
b10000 $
1"
b10010 $
b1010010 $
0!
13
15
14
1B
00
01
1=
1:
1C
1D
#225000
1!
10
11
1O
1%
0I
0C
1@
#230000
1#
0"
0!
1?
0B
00
01
0@
0D
#235000
1!
10
11
0O
0%
1I
#240000
b1000010 $
b1000000 $
b0 $
0!
03
05
04
00
01
0=
0:
1F
0F
1H
0H
#245000
1!
10
11
#250000
0#
0!
0?
00
01
#255000
1!
10
11
#260000
b10 $
b1000010 $
0!
13
14
00
01
1=
1:
1F
1H
#265000
1!
10
11
1P
1&
0F
1;
#270000
0!
00
01
#275000
1!
10
11
#280000
b1000000 $
b0 $
0!
03
04
00
01
0=
0:
#285000
1!
10
11
#290000
0!
00
01
#295000
1!
10
11
#300000
1"
b10000 $
b10010 $
b1010010 $
0!
1B
13
15
14
00
01
1=
1:
1L
1C
1D
#305000
1!
10
11
1O
1%
0I
0C
1@
#310000
1#
0"
0!
1?
0B
00
01
0@
0D
#315000
1!
10
11
0O
0%
1I
#320000
b1000010 $
b1000000 $
b0 $
0!
03
05
04
00
01
0=
0:
0L
#325000
1!
10
11
#330000
0#
0!
0?
00
01
#335000
1!
10
11
#340000
b100 $
b1000100 $
0!
12
14
00
01
18
1G
0M
#345000
1!
10
11
0Q
0'
1J
0G
#350000
0!
00
01
#355000
1!
10
11
#360000
b1000000 $
b0 $
0!
02
04
00
01
08
#365000
1!
10
11
#370000
0!
00
01
#375000
1!
10
11
#380000
0!
00
01
#385000
1!
10
11
#390000
0!
00
01
#395000
1!
10
11
#400000
0!
00
01
#405000
1!
10
11
#410000
0!
00
01
#415000
1!
10
11
#420000
0!
00
01
#425000
1!
10
11
#430000
0!
00
01
#435000
1!
10
11
#440000
0!
00
01
#445000
1!
10
11
#450000
0!
00
01
#455000
1!
10
11
#460000
0!
00
01
#465000
1!
10
11
#470000
0!
00
01
#475000
1!
10
11
#480000
0!
00
01
#485000
1!
10
11
#490000
0!
00
01
#495000
1!
10
11
#500000
0!
00
01
#505000
1!
10
11
#510000
0!
00
01
#515000
1!
10
11
#520000
0!
00
01
#525000
1!
10
11
#530000
0!
00
01
#535000
1!
10
11
#540000
0!
00
01
#545000
1!
10
11
#550000
0!
00
01
#555000
1!
10
11
#560000
0!
00
01
#565000
1!
10
11
#570000
0!
00
01
#575000
1!
10
11
#580000
0!
00
01
#585000
1!
10
11
#590000
0!
00
01
#595000
1!
10
11
#600000
0!
00
01
#605000
1!
10
11
#610000
0!
00
01
#615000
1!
10
11
#620000
0!
00
01
#625000
1!
10
11
#630000
0!
00
01
#635000
1!
10
11
#640000
0!
00
01
#645000
1!
10
11
#650000
0!
00
01
#655000
1!
10
11
#660000
0!
00
01
#665000
1!
10
11
#670000
0!
00
01
#675000
1!
10
11
#680000
0!
00
01
#685000
1!
10
11
#690000
0!
00
01
#695000
1!
10
11
#700000
0!
00
01
#705000
1!
10
11
#710000
0!
00
01
#715000
1!
10
11
#720000
0!
00
01
#725000
1!
10
11
#730000
0!
00
01
#735000
1!
10
11
#740000
0!
00
01
#745000
1!
10
11
#750000
0!
00
01
#755000
1!
10
11
#760000
0!
00
01
#765000
1!
10
11
#770000
0!
00
01
#775000
1!
10
11
#780000
0!
00
01
#785000
1!
10
11
#790000
0!
00
01
#795000
1!
10
11
#800000
0!
00
01
#805000
1!
10
11
#810000
0!
00
01
#815000
1!
10
11
#820000
0!
00
01
#825000
1!
10
11
#830000
0!
00
01
#835000
1!
10
11
#840000
0!
00
01
#845000
1!
10
11
#850000
0!
00
01
#855000
1!
10
11
#860000
0!
00
01
#865000
1!
10
11
#870000
0!
00
01
#875000
1!
10
11
#880000
0!
00
01
#885000
1!
10
11
#890000
0!
00
01
#895000
1!
10
11
#900000
0!
00
01
#905000
1!
10
11
#910000
0!
00
01
#915000
1!
10
11
#920000
0!
00
01
#925000
1!
10
11
#930000
0!
00
01
#935000
1!
10
11
#940000
0!
00
01
#945000
1!
10
11
#950000
0!
00
01
#955000
1!
10
11
#960000
0!
00
01
#965000
1!
10
11
#970000
0!
00
01
#975000
1!
10
11
#980000
0!
00
01
#985000
1!
10
11
#990000
0!
00
01
#995000
1!
10
11
