H2/qs3/simulation/qsim/qs3.msim.vcd
$comment
	File created using the following command:
		vcd file qs3.msim.vcd -direction
$end
$date
	Fri Jun 02 17:42:53 2023
$end
$version
	ModelSim Version 10.5b
$end
$timescale
	1ps
$end

$scope module qs3_vlg_vec_tst $end
$var reg 1 ! clk $end
$var reg 1 " pause $end
$var reg 1 # restart $end
$var reg 1 $ rst $end
$var wire 1 % even $end
$var wire 1 & odd $end
$var wire 1 ' state [1] $end
$var wire 1 ( state [0] $end
$var wire 1 ) terminal $end

$scope module i1 $end
$var wire 1 * gnd $end
$var wire 1 + vcc $end
$var wire 1 , unknown $end
$var tri1 1 - devclrn $end
$var tri1 1 . devpor $end
$var tri1 1 / devoe $end
$var wire 1 0 ~QUARTUS_CREATED_GND~I_combout $end
$var wire 1 1 clk~input_o $end
$var wire 1 2 clk~inputCLKENA0_outclk $end
$var wire 1 3 pause~input_o $end
$var wire 1 4 restart~input_o $end
$var wire 1 5 Mux0~0_combout $end
$var wire 1 6 rst~input_o $end
$var wire 1 7 state[1]~reg0_q $end
$var wire 1 8 Mux1~0_combout $end
$var wire 1 9 state[0]~reg0_q $end
$var wire 1 : Equal2~0_combout $end
$var wire 1 ; terminal~0_combout $end
$upscope $end
$upscope $end
$enddefinitions $end
#0
$dumpvars
0!
0"
0#
0$
0%
1&
1(
1'
0)
0*
1+
x,
1-
1.
1/
00
01
02
03
04
15
06
07
08
09
0:
0;
$end
#5000
1!
11
12
17
0&
0'
1:
18
05
1%
#10000
0!
01
02
#15000
1!
11
12
19
07
1&
1'
0(
1;
0:
08
0%
1)
#20000
0!
01
02
#25000
1!
11
12
09
1(
0;
15
0)
#30000
0!
01
02
#35000
1!
11
12
17
0&
0'
1:
18
05
1%
#40000
0!
01
02
#45000
1!
11
12
19
07
1&
1'
0(
1;
0:
08
0%
1)
#50000
0!
01
02
#55000
1!
11
12
09
1(
0;
15
0)
#60000
0!
01
02
#65000
1!
11
12
17
0&
0'
1:
18
05
1%
#70000
1"
0!
13
01
02
08
15
#75000
1!
11
12
#80000
0!
01
02
#85000
1!
11
12
#90000
0!
01
02
#95000
1!
11
12
#100000
0!
01
02
#105000
1!
11
12
#110000
0!
01
02
#115000
1!
11
12
#120000
0"
0!
03
01
02
18
05
#125000
1!
11
12
19
07
1&
1'
0(
1;
0:
08
0%
1)
#130000
0!
01
02
#135000
1!
11
12
09
1(
0;
15
0)
#140000
1"
0!
13
01
02
05
#145000
1!
11
12
#150000
0!
01
02
#155000
1!
11
12
#160000
0!
01
02
#165000
1!
11
12
#170000
0"
0!
03
01
02
15
#175000
1!
11
12
17
0&
0'
1:
18
05
1%
#180000
0!
01
02
#185000
1!
11
12
19
07
1&
1'
0(
1;
0:
08
0%
1)
#190000
1"
0!
13
01
02
0;
18
0)
#195000
1!
11
12
#200000
0!
01
02
#205000
1!
11
12
#210000
0"
0!
03
01
02
1;
08
1)
#215000
1!
11
12
09
1(
0;
15
0)
#220000
0!
01
02
#225000
1!
11
12
17
0&
0'
1:
18
05
1%
#230000
1"
0!
13
01
02
08
15
#235000
1!
11
12
#240000
0!
01
02
#245000
1!
11
12
#250000
0"
0!
03
01
02
18
05
#255000
1!
11
12
19
07
1&
1'
0(
1;
0:
08
0%
1)
#260000
1"
0!
13
01
02
0;
18
0)
#265000
1!
11
12
#270000
0!
01
02
#275000
1!
11
12
#280000
0"
0!
03
01
02
1;
08
1)
#285000
1!
11
12
09
1(
0;
15
0)
#290000
0!
01
02
#295000
1!
11
12
17
0&
0'
1:
18
05
1%
#300000
0!
01
02
#305000
1!
11
12
19
07
1&
1'
0(
1;
0:
08
0%
1)
#310000
0!
01
02
#315000
1!
11
12
09
1(
0;
15
0)
#320000
0!
01
02
#325000
1!
11
12
17
0&
0'
1:
18
05
1%
#330000
0!
01
02
#335000
1!
11
12
19
07
1&
1'
0(
1;
0:
08
0%
1)
#340000
0!
01
02
#345000
1!
11
12
09
1(
0;
15
0)
#350000
0!
01
02
#355000
1!
11
12
17
0&
0'
1:
18
05
1%
#360000
0!
01
02
#365000
1!
11
12
19
07
1&
1'
0(
1;
0:
08
0%
1)
#370000
0!
01
02
#375000
1!
11
12
09
1(
0;
15
0)
#380000
0!
01
02
#385000
1!
11
12
17
0&
0'
1:
18
05
1%
#390000
1"
0!
13
01
02
08
15
#395000
1!
11
12
#400000
0!
01
02
#405000
1!
11
12
#410000
0"
0!
03
01
02
18
05
#415000
1!
11
12
19
07
1&
1'
0(
1;
0:
08
0%
1)
#420000
0!
01
02
#425000
1!
11
12
09
1(
0;
15
0)
#430000
0!
01
02
#435000
1!
11
12
17
0&
0'
1:
18
05
1%
#440000
0!
01
02
#445000
1!
11
12
19
07
1&
1'
0(
1;
0:
08
0%
1)
#450000
0!
01
02
#455000
1!
11
12
09
1(
0;
15
0)
#460000
0!
01
02
#465000
1!
11
12
17
0&
0'
1:
18
05
1%
#470000
0!
01
02
#475000
1!
11
12
19
07
1&
1'
0(
1;
0:
08
0%
1)
#480000
0!
01
02
#485000
1!
11
12
09
1(
0;
15
0)
#490000
0!
01
02
#495000
1!
11
12
17
0&
0'
1:
18
05
1%
#500000
1#
0!
14
01
02
08
#505000
1!
11
12
07
1&
1'
0:
0%
#510000
0!
01
02
#515000
1!
11
12
#520000
0#
0!
04
01
02
15
#525000
1!
11
12
17
0&
0'
1:
18
05
1%
#530000
0!
01
02
#535000
1!
11
12
19
07
1&
1'
0(
1;
0:
08
0%
1)
#540000
0!
01
02
#545000
1!
11
12
09
1(
0;
15
0)
#550000
0!
01
02
#555000
1!
11
12
17
0&
0'
1:
18
05
1%
#560000
1"
1#
0!
13
14
01
02
08
#565000
1!
11
12
07
1&
1'
0:
0%
#570000
0!
01
02
#575000
1!
11
12
#580000
0!
01
02
#585000
1!
11
12
#590000
0"
0#
0!
03
04
01
02
15
#595000
1!
11
12
17
0&
0'
1:
18
05
1%
#600000
0!
01
02
#605000
1!
11
12
19
07
1&
1'
0(
1;
0:
08
0%
1)
#610000
0!
01
02
#615000
1!
11
12
09
1(
0;
15
0)
#620000
1$
0!
16
01
02
#625000
1!
11
12
#630000
0!
01
02
#635000
1!
11
12
#640000
0$
0!
06
01
02
#645000
1!
11
12
17
0&
0'
1:
18
05
1%
#650000
0!
01
02
#655000
1!
11
12
19
07
1&
1'
0(
1;
0:
08
0%
1)
#660000
0!
01
02
#665000
1!
11
12
09
1(
0;
15
0)
#670000
0!
01
02
#675000
1!
11
12
17
0&
0'
1:
18
05
1%
#680000
0!
01
02
#685000
1!
11
12
19
07
1&
1'
0(
1;
0:
08
0%
1)
#690000
0!
01
02
#695000
1!
11
12
09
1(
0;
15
0)
#700000
0!
01
02
#705000
1!
11
12
17
0&
0'
1:
18
05
1%
#710000
0!
01
02
#715000
1!
11
12
19
07
1&
1'
0(
1;
0:
08
0%
1)
#720000
0!
01
02
#725000
1!
11
12
09
1(
0;
15
0)
#730000
0!
01
02
#735000
1!
11
12
17
0&
0'
1:
18
05
1%
#740000
0!
01
02
#745000
1!
11
12
19
07
1&
1'
0(
1;
0:
08
0%
1)
#750000
0!
01
02
#755000
1!
11
12
09
1(
0;
15
0)
#760000
0!
01
02
#765000
1!
11
12
17
0&
0'
1:
18
05
1%
#770000
0!
01
02
#775000
1!
11
12
19
07
1&
1'
0(
1;
0:
08
0%
1)
#780000
0!
01
02
#785000
1!
11
12
09
1(
0;
15
0)
#790000
0!
01
02
#795000
1!
11
12
17
0&
0'
1:
18
05
1%
#800000
0!
01
02
#805000
1!
11
12
19
07
1&
1'
0(
1;
0:
08
0%
1)
#810000
0!
01
02
#815000
1!
11
12
09
1(
0;
15
0)
#820000
0!
01
02
#825000
1!
11
12
17
0&
0'
1:
18
05
1%
#830000
0!
01
02
#835000
1!
11
12
19
07
1&
1'
0(
1;
0:
08
0%
1)
#840000
0!
01
02
#845000
1!
11
12
09
1(
0;
15
0)
#850000
0!
01
02
#855000
1!
11
12
17
0&
0'
1:
18
05
1%
#860000
0!
01
02
#865000
1!
11
12
19
07
1&
1'
0(
1;
0:
08
0%
1)
#870000
0!
01
02
#875000
1!
11
12
09
1(
0;
15
0)
#880000
0!
01
02
#885000
1!
11
12
17
0&
0'
1:
18
05
1%
#890000
0!
01
02
#895000
1!
11
12
19
07
1&
1'
0(
1;
0:
08
0%
1)
#900000
0!
01
02
#905000
1!
11
12
09
1(
0;
15
0)
#910000
0!
01
02
#915000
1!
11
12
17
0&
0'
1:
18
05
1%
#920000
0!
01
02
#925000
1!
11
12
19
07
1&
1'
0(
1;
0:
08
0%
1)
#930000
0!
01
02
#935000
1!
11
12
09
1(
0;
15
0)
#940000
0!
01
02
#945000
1!
11
12
17
0&
0'
1:
18
05
1%
#950000
0!
01
02
#955000
1!
11
12
19
07
1&
1'
0(
1;
0:
08
0%
1)
#960000
0!
01
02
#965000
1!
11
12
09
1(
0;
15
0)
#970000
0!
01
02
#975000
1!
11
12
17
0&
0'
1:
18
05
1%
#980000
0!
01
02
#985000
1!
11
12
19
07
1&
1'
0(
1;
0:
08
0%
1)
#990000
0!
01
02
#995000
1!
11
12
09
1(
0;
15
0)
