lab2_template_de1soc/template_de1soc/simulation_wave/address_flash_sim/simulation/qsim/address_flash_sim.msim.vcd
$comment
	File created using the following command:
		vcd file address_flash_sim.msim.vcd -direction
$end
$date
	Fri Jun 09 12:18:19 2023
$end
$version
	ModelSim Version 10.5b
$end
$timescale
	1ps
$end

$scope module address_flash_sim_vlg_vec_tst $end
$var reg 1 ! clk $end
$var reg 1 " finish $end
$var reg 32 # in_data [31:0] $end
$var reg 3 $ out_signal [2:0] $end
$var reg 1 % sych_clk $end
$var wire 1 & add_finish $end
$var wire 1 ' add_read $end
$var wire 1 ( add_start $end
$var wire 1 ) address [22] $end
$var wire 1 * address [21] $end
$var wire 1 + address [20] $end
$var wire 1 , address [19] $end
$var wire 1 - address [18] $end
$var wire 1 . address [17] $end
$var wire 1 / address [16] $end
$var wire 1 0 address [15] $end
$var wire 1 1 address [14] $end
$var wire 1 2 address [13] $end
$var wire 1 3 address [12] $end
$var wire 1 4 address [11] $end
$var wire 1 5 address [10] $end
$var wire 1 6 address [9] $end
$var wire 1 7 address [8] $end
$var wire 1 8 address [7] $end
$var wire 1 9 address [6] $end
$var wire 1 : address [5] $end
$var wire 1 ; address [4] $end
$var wire 1 < address [3] $end
$var wire 1 = address [2] $end
$var wire 1 > address [1] $end
$var wire 1 ? address [0] $end
$var wire 1 @ byteenable [3] $end
$var wire 1 A byteenable [2] $end
$var wire 1 B byteenable [1] $end
$var wire 1 C byteenable [0] $end
$var wire 1 D out_data [7] $end
$var wire 1 E out_data [6] $end
$var wire 1 F out_data [5] $end
$var wire 1 G out_data [4] $end
$var wire 1 H out_data [3] $end
$var wire 1 I out_data [2] $end
$var wire 1 J out_data [1] $end
$var wire 1 K out_data [0] $end

$scope module i1 $end
$var wire 1 L gnd $end
$var wire 1 M vcc $end
$var wire 1 N unknown $end
$var tri1 1 O devclrn $end
$var tri1 1 P devpor $end
$var tri1 1 Q devoe $end
$var wire 1 R in_data[8]~input_o $end
$var wire 1 S in_data[9]~input_o $end
$var wire 1 T in_data[10]~input_o $end
$var wire 1 U in_data[11]~input_o $end
$var wire 1 V in_data[12]~input_o $end
$var wire 1 W in_data[13]~input_o $end
$var wire 1 X in_data[14]~input_o $end
$var wire 1 Y in_data[15]~input_o $end
$var wire 1 Z in_data[16]~input_o $end
$var wire 1 [ in_data[17]~input_o $end
$var wire 1 \ in_data[18]~input_o $end
$var wire 1 ] in_data[19]~input_o $end
$var wire 1 ^ in_data[20]~input_o $end
$var wire 1 _ in_data[21]~input_o $end
$var wire 1 ` in_data[22]~input_o $end
$var wire 1 a in_data[23]~input_o $end
$var wire 1 b ~QUARTUS_CREATED_GND~I_combout $end
$var wire 1 c clk~input_o $end
$var wire 1 d clk~inputCLKENA0_outclk $end
$var wire 1 e out_signal[0]~input_o $end
$var wire 1 f finish~input_o $end
$var wire 1 g out_signal[1]~input_o $end
$var wire 1 h state~0_combout $end
$var wire 1 i Selector1~0_combout $end
$var wire 1 j Selector4~3_combout $end
$var wire 1 k sych_clk~input_o $end
$var wire 1 l Selector4~4_combout $end
$var wire 1 m Selector4~2_combout $end
$var wire 1 n Selector4~5_combout $end
$var wire 1 o Selector3~0_combout $end
$var wire 1 p Selector0~0_combout $end
$var wire 1 q Selector2~0_combout $end
$var wire 1 r Selector2~1_combout $end
$var wire 1 s state~1_combout $end
$var wire 1 t Selector4~0_combout $end
$var wire 1 u Selector4~1_combout $end
$var wire 1 v out_signal[2]~input_o $end
$var wire 1 w Add1~2 $end
$var wire 1 x Add1~5_sumout $end
$var wire 1 y Selector26~0_combout $end
$var wire 1 z Add1~42 $end
$var wire 1 { Add1~45_sumout $end
$var wire 1 | Selector16~0_combout $end
$var wire 1 } address[11]~6_combout $end
$var wire 1 ~ address[11]~reg0_q $end
$var wire 1 !! Add1~46 $end
$var wire 1 "! Add1~49_sumout $end
$var wire 1 #! Selector15~0_combout $end
$var wire 1 $! address[12]~reg0_q $end
$var wire 1 %! Add1~50 $end
$var wire 1 &! Add1~53_sumout $end
$var wire 1 '! Selector14~0_combout $end
$var wire 1 (! address[13]~reg0_q $end
$var wire 1 )! Add1~54 $end
$var wire 1 *! Add1~57_sumout $end
$var wire 1 +! Selector13~0_combout $end
$var wire 1 ,! address[14]~reg0_q $end
$var wire 1 -! Add1~58 $end
$var wire 1 .! Add1~61_sumout $end
$var wire 1 /! Selector12~0_combout $end
$var wire 1 0! address[15]~reg0_q $end
$var wire 1 1! Add1~62 $end
$var wire 1 2! Add1~65_sumout $end
$var wire 1 3! Selector11~0_combout $end
$var wire 1 4! address[16]~reg0_q $end
$var wire 1 5! Add1~66 $end
$var wire 1 6! Add1~69_sumout $end
$var wire 1 7! Selector10~0_combout $end
$var wire 1 8! address[17]~reg0_q $end
$var wire 1 9! Add1~70 $end
$var wire 1 :! Add1~73_sumout $end
$var wire 1 ;! Selector9~0_combout $end
$var wire 1 <! address[18]~reg0_q $end
$var wire 1 =! Add1~74 $end
$var wire 1 >! Add1~77_sumout $end
$var wire 1 ?! Selector8~0_combout $end
$var wire 1 @! address[19]~reg0_q $end
$var wire 1 A! Add1~78 $end
$var wire 1 B! Add1~81_sumout $end
$var wire 1 C! Selector7~0_combout $end
$var wire 1 D! address[20]~reg0_q $end
$var wire 1 E! Add1~82 $end
$var wire 1 F! Add1~85_sumout $end
$var wire 1 G! Selector6~0_combout $end
$var wire 1 H! address[21]~reg0_q $end
$var wire 1 I! Add1~86 $end
$var wire 1 J! Add1~89_sumout $end
$var wire 1 K! Selector5~0_combout $end
$var wire 1 L! address[22]~reg0_q $end
$var wire 1 M! address[11]~5_combout $end
$var wire 1 N! address[1]~reg0_q $end
$var wire 1 O! Add1~6 $end
$var wire 1 P! Add1~9_sumout $end
$var wire 1 Q! Selector25~0_combout $end
$var wire 1 R! address[2]~reg0_q $end
$var wire 1 S! Add1~10 $end
$var wire 1 T! Add1~13_sumout $end
$var wire 1 U! Selector24~0_combout $end
$var wire 1 V! address[3]~reg0_q $end
$var wire 1 W! Add1~14 $end
$var wire 1 X! Add1~17_sumout $end
$var wire 1 Y! Selector23~0_combout $end
$var wire 1 Z! address[4]~reg0_q $end
$var wire 1 [! Add1~18 $end
$var wire 1 \! Add1~21_sumout $end
$var wire 1 ]! Selector22~0_combout $end
$var wire 1 ^! address[5]~reg0_q $end
$var wire 1 _! Add1~22 $end
$var wire 1 `! Add1~25_sumout $end
$var wire 1 a! Selector21~0_combout $end
$var wire 1 b! address[6]~reg0_q $end
$var wire 1 c! Add1~26 $end
$var wire 1 d! Add1~29_sumout $end
$var wire 1 e! Selector20~0_combout $end
$var wire 1 f! address[7]~reg0_q $end
$var wire 1 g! address[11]~0_combout $end
$var wire 1 h! Add1~30 $end
$var wire 1 i! Add1~34 $end
$var wire 1 j! Add1~37_sumout $end
$var wire 1 k! Selector18~0_combout $end
$var wire 1 l! address[9]~reg0_q $end
$var wire 1 m! Add1~38 $end
$var wire 1 n! Add1~41_sumout $end
$var wire 1 o! Selector17~0_combout $end
$var wire 1 p! address[10]~reg0_q $end
$var wire 1 q! address[11]~3_combout $end
$var wire 1 r! address[11]~1_combout $end
$var wire 1 s! address[11]~2_combout $end
$var wire 1 t! address[11]~4_combout $end
$var wire 1 u! Add1~33_sumout $end
$var wire 1 v! Selector19~0_combout $end
$var wire 1 w! address[8]~reg0_q $end
$var wire 1 x! Add1~1_sumout $end
$var wire 1 y! Selector27~0_combout $end
$var wire 1 z! address[0]~reg0_q $end
$var wire 1 {! in_data[0]~input_o $end
$var wire 1 |! in_data[24]~input_o $end
$var wire 1 }! Selector35~0_combout $end
$var wire 1 ~! out_data[2]~0_combout $end
$var wire 1 !" out_data[0]~reg0_q $end
$var wire 1 "" in_data[25]~input_o $end
$var wire 1 #" in_data[1]~input_o $end
$var wire 1 $" Selector34~0_combout $end
$var wire 1 %" out_data[1]~reg0_q $end
$var wire 1 &" in_data[26]~input_o $end
$var wire 1 '" in_data[2]~input_o $end
$var wire 1 (" Selector33~0_combout $end
$var wire 1 )" out_data[2]~reg0_q $end
$var wire 1 *" in_data[27]~input_o $end
$var wire 1 +" in_data[3]~input_o $end
$var wire 1 ," Selector32~0_combout $end
$var wire 1 -" out_data[3]~reg0_q $end
$var wire 1 ." in_data[4]~input_o $end
$var wire 1 /" in_data[28]~input_o $end
$var wire 1 0" Selector31~0_combout $end
$var wire 1 1" out_data[4]~reg0_q $end
$var wire 1 2" in_data[5]~input_o $end
$var wire 1 3" in_data[29]~input_o $end
$var wire 1 4" Selector30~0_combout $end
$var wire 1 5" out_data[5]~reg0_q $end
$var wire 1 6" in_data[6]~input_o $end
$var wire 1 7" in_data[30]~input_o $end
$var wire 1 8" Selector29~0_combout $end
$var wire 1 9" out_data[6]~reg0_q $end
$var wire 1 :" in_data[7]~input_o $end
$var wire 1 ;" in_data[31]~input_o $end
$var wire 1 <" Selector28~0_combout $end
$var wire 1 =" out_data[7]~reg0_q $end
$var wire 1 >" state [5] $end
$var wire 1 ?" state [4] $end
$var wire 1 @" state [3] $end
$var wire 1 A" state [2] $end
$var wire 1 B" state [1] $end
$var wire 1 C" state [0] $end
$upscope $end
$upscope $end
$enddefinitions $end
#0
$dumpvars
0!
0"
b1011011101111011010110111001011 #
b0 $
0%
0&
0'
0(
0?
0>
0=
0<
0;
0:
09
08
07
06
05
04
03
02
01
00
0/
0.
0-
0,
0+
0*
0)
1C
1B
1A
1@
0K
0J
0I
0H
0G
0F
0E
0D
0L
1M
xN
1O
1P
1Q
1R
0S
1T
1U
0V
1W
0X
1Y
1Z
0[
1\
1]
1^
1_
0`
1a
0b
0c
0d
0e
0f
0g
1h
0i
0j
0k
0l
0m
0n
0o
0p
0q
0r
0s
1t
0u
0v
0w
1x
1y
0z
1{
1|
0}
0~
0!!
1"!
1#!
0$!
0%!
1&!
1'!
0(!
0)!
1*!
1+!
0,!
0-!
1.!
1/!
00!
01!
12!
13!
04!
05!
16!
17!
08!
09!
1:!
1;!
0<!
0=!
1>!
0?!
0@!
0A!
1B!
0C!
0D!
0E!
1F!
0G!
0H!
0I!
1J!
0K!
0L!
0M!
0N!
0O!
1P!
1Q!
0R!
0S!
1T!
1U!
0V!
0W!
1X!
1Y!
0Z!
0[!
1\!
1]!
0^!
0_!
1`!
1a!
0b!
0c!
1d!
1e!
0f!
1g!
0h!
0i!
1j!
1k!
0l!
0m!
1n!
1o!
0p!
1q!
1r!
1s!
1t!
1u!
1v!
0w!
1x!
1y!
0z!
1{!
1|!
1}!
0~!
0!"
1""
1#"
1$"
0%"
0&"
0'"
0("
0)"
1*"
1+"
1,"
0-"
0."
1/"
00"
01"
02"
03"
04"
05"
16"
17"
18"
09"
1:"
0;"
1<"
0="
0C"
0B"
0A"
0@"
0?"
0>"
$end
#5000
1!
1c
1d
#10000
0!
0c
0d
#15000
1!
1c
1d
#20000
b1 $
0!
1e
0c
0d
1m
1u
1o
#25000
1!
1c
1d
1A"
1B"
1(
1'
0m
1j
0h
0o
1o
#30000
0!
0c
0d
#35000
1!
1c
1d
#40000
b0 $
0!
0e
0c
0d
#45000
1!
1c
1d
#50000
0!
0c
0d
#55000
1!
1c
1d
#60000
1"
1%
0!
1f
1k
0c
0d
1q
0j
0u
0o
1r
#65000
1!
1c
1d
1@"
0A"
0B"
0(
0'
0t
1l
1h
1o
#70000
0!
0c
0d
#75000
1!
1c
1d
1A"
1~!
0q
0o
1i
0r
#80000
0"
0%
0!
0f
0k
0c
0d
0l
#85000
1!
1c
1d
0@"
0A"
1?"
1="
19"
1-"
1%"
1!"
1K
1J
1H
1E
1D
0~!
1n
0<"
10"
#90000
0!
0c
0d
#95000
1!
1c
1d
#100000
1%
0!
1k
0c
0d
1m
1o
#105000
1!
1c
1d
1A"
1~!
1q
0o
1r
#110000
0!
0c
0d
#115000
1!
1c
1d
1@"
0A"
0="
11"
1G
0D
0~!
0q
1p
0i
0r
#120000
0%
0!
0k
0c
0d
0m
#125000
1!
1c
1d
0@"
1>"
0?"
1}
1s
0n
1m
0s!
0j!
0u!
0d!
0`!
0\!
0X!
0T!
0P!
0J!
0F!
0B!
0>!
0:!
06!
02!
0.!
0*!
0&!
0"!
0{
0n!
0x
1<"
00"
0t!
1o
0v!
0o!
0k!
0e!
0a!
0]!
0Y!
0U!
0Q!
0;!
07!
03!
0/!
0+!
0'!
0#!
0|
0y
#130000
0!
0c
0d
#135000
1!
1c
1d
1A"
1z!
1C"
1&
1?
0}
0s
0p
0m
0h
0r!
1w
0x!
0o
1x
0y!
1y
#140000
1%
0!
1k
0c
0d
#145000
1!
1c
1d
0>"
0A"
0C"
0&
1s!
1j!
1u!
1d!
1`!
1\!
1X!
1T!
1P!
1J!
1F!
1B!
1>!
1:!
16!
12!
1.!
1*!
1&!
1"!
1{
1n!
1O!
0x
1t
1l
1h
1S!
0P!
0y
1o!
1|
1#!
1'!
1+!
1/!
13!
17!
1;!
1?!
1C!
1G!
1K!
1Q!
1U!
1Y!
1]!
1a!
1e!
1v!
1k!
1W!
0T!
0Q!
1[!
0X!
0U!
1_!
0\!
0Y!
1c!
0`!
0]!
1h!
0d!
0a!
1i!
0u!
0e!
1m!
0j!
0v!
1z
0n!
0k!
1!!
0{
0o!
1%!
0"!
0|
1)!
0&!
0#!
1-!
0*!
0'!
11!
0.!
0+!
15!
02!
0/!
19!
06!
03!
1=!
0:!
07!
1A!
0>!
0;!
1E!
0B!
0?!
1I!
0F!
0C!
0J!
0G!
0K!
#150000
0!
0c
0d
#155000
1!
1c
1d
#160000
0%
0!
0k
0c
0d
0l
#165000
1!
1c
1d
#170000
0!
0c
0d
#175000
1!
1c
1d
#180000
1%
0!
1k
0c
0d
1l
#185000
1!
1c
1d
#190000
0!
0c
0d
#195000
1!
1c
1d
#200000
0%
0!
0k
0c
0d
0l
#205000
1!
1c
1d
#210000
0!
0c
0d
#215000
1!
1c
1d
#220000
1%
0!
1k
0c
0d
1l
#225000
1!
1c
1d
#230000
0!
0c
0d
#235000
1!
1c
1d
#240000
0%
0!
0k
0c
0d
0l
#245000
1!
1c
1d
#250000
0!
0c
0d
#255000
1!
1c
1d
#260000
1%
0!
1k
0c
0d
1l
#265000
1!
1c
1d
#270000
0!
0c
0d
#275000
1!
1c
1d
#280000
0%
0!
0k
0c
0d
0l
#285000
1!
1c
1d
#290000
0!
0c
0d
#295000
1!
1c
1d
#300000
b10 $
0!
1g
0c
0d
0<"
10"
#305000
1!
1c
1d
#310000
0!
0c
0d
#315000
1!
1c
1d
#320000
b0 $
0!
0g
0c
0d
1<"
00"
#325000
1!
1c
1d
#330000
0!
0c
0d
#335000
1!
1c
1d
#340000
0!
0c
0d
#345000
1!
1c
1d
#350000
b100 $
0!
1v
0c
0d
1y!
1v!
1o!
1k!
1e!
1a!
1]!
1Y!
1U!
1Q!
1;!
17!
13!
1/!
1+!
1'!
1#!
1|
1y
#355000
1!
1c
1d
#360000
0!
0c
0d
#365000
1!
1c
1d
#370000
b0 $
0!
0v
0c
0d
0y!
0v!
0o!
0k!
0e!
0a!
0]!
0Y!
0U!
0Q!
0;!
07!
03!
0/!
0+!
0'!
0#!
0|
0y
#375000
1!
1c
1d
#380000
0!
0c
0d
#385000
1!
1c
1d
#390000
0!
0c
0d
#395000
1!
1c
1d
#400000
b100 $
0!
1v
0c
0d
1y!
1v!
1o!
1k!
1e!
1a!
1]!
1Y!
1U!
1Q!
1;!
17!
13!
1/!
1+!
1'!
1#!
1|
1y
#405000
1!
1c
1d
#410000
0!
0c
0d
#415000
1!
1c
1d
#420000
b0 $
0!
0v
0c
0d
0y!
0v!
0o!
0k!
0e!
0a!
0]!
0Y!
0U!
0Q!
0;!
07!
03!
0/!
0+!
0'!
0#!
0|
0y
#425000
1!
1c
1d
#430000
0!
0c
0d
#435000
1!
1c
1d
#440000
0!
0c
0d
#445000
1!
1c
1d
#450000
0!
0c
0d
#455000
1!
1c
1d
#460000
0!
0c
0d
#465000
1!
1c
1d
#470000
0!
0c
0d
#475000
1!
1c
1d
#480000
0!
0c
0d
#485000
1!
1c
1d
#490000
0!
0c
0d
#495000
1!
1c
1d
#500000
0!
0c
0d
#505000
1!
1c
1d
#510000
0!
0c
0d
#515000
1!
1c
1d
#520000
0!
0c
0d
#525000
1!
1c
1d
#530000
0!
0c
0d
#535000
1!
1c
1d
#540000
0!
0c
0d
#545000
1!
1c
1d
#550000
0!
0c
0d
#555000
1!
1c
1d
#560000
0!
0c
0d
#565000
1!
1c
1d
#570000
0!
0c
0d
#575000
1!
1c
1d
#580000
0!
0c
0d
#585000
1!
1c
1d
#590000
0!
0c
0d
#595000
1!
1c
1d
#600000
0!
0c
0d
#605000
1!
1c
1d
#610000
0!
0c
0d
#615000
1!
1c
1d
#620000
0!
0c
0d
#625000
1!
1c
1d
#630000
0!
0c
0d
#635000
1!
1c
1d
#640000
0!
0c
0d
#645000
1!
1c
1d
#650000
0!
0c
0d
#655000
1!
1c
1d
#660000
0!
0c
0d
#665000
1!
1c
1d
#670000
0!
0c
0d
#675000
1!
1c
1d
#680000
0!
0c
0d
#685000
1!
1c
1d
#690000
0!
0c
0d
#695000
1!
1c
1d
#700000
0!
0c
0d
#705000
1!
1c
1d
#710000
0!
0c
0d
#715000
1!
1c
1d
#720000
0!
0c
0d
#725000
1!
1c
1d
#730000
0!
0c
0d
#735000
1!
1c
1d
#740000
0!
0c
0d
#745000
1!
1c
1d
#750000
0!
0c
0d
#755000
1!
1c
1d
#760000
0!
0c
0d
#765000
1!
1c
1d
#770000
0!
0c
0d
#775000
1!
1c
1d
#780000
0!
0c
0d
#785000
1!
1c
1d
#790000
0!
0c
0d
#795000
1!
1c
1d
#800000
0!
0c
0d
#805000
1!
1c
1d
#810000
0!
0c
0d
#815000
1!
1c
1d
#820000
0!
0c
0d
#825000
1!
1c
1d
#830000
0!
0c
0d
#835000
1!
1c
1d
#840000
0!
0c
0d
#845000
1!
1c
1d
#850000
0!
0c
0d
#855000
1!
1c
1d
#860000
0!
0c
0d
#865000
1!
1c
1d
#870000
0!
0c
0d
#875000
1!
1c
1d
#880000
0!
0c
0d
#885000
1!
1c
1d
#890000
0!
0c
0d
#895000
1!
1c
1d
#900000
0!
0c
0d
#905000
1!
1c
1d
#910000
0!
0c
0d
#915000
1!
1c
1d
#920000
0!
0c
0d
#925000
1!
1c
1d
#930000
0!
0c
0d
#935000
1!
1c
1d
#940000
0!
0c
0d
#945000
1!
1c
1d
#950000
0!
0c
0d
#955000
1!
1c
1d
#960000
0!
0c
0d
#965000
1!
1c
1d
#970000
0!
0c
0d
#975000
1!
1c
1d
#980000
0!
0c
0d
#985000
1!
1c
1d
#990000
0!
0c
0d
#995000
1!
1c
1d
