H3/shared_access_to_one_state_machine/simulation/qsim/shared_access_to_one_state_machine.msim.vcd
$comment
	File created using the following command:
		vcd file shared_access_to_one_state_machine.msim.vcd -direction
$end
$date
	Sun Jun 11 19:03:31 2023
$end
$version
	ModelSim Version 10.5b
$end
$timescale
	1ps
$end

$scope module shared_access_to_one_state_machine_vlg_vec_tst $end
$var reg 8 ! in_received_data [7:0] $end
$var reg 32 " input_arguments_a [31:0] $end
$var reg 32 # input_arguments_b [31:0] $end
$var reg 1 $ reset $end
$var reg 1 % sm_clk $end
$var reg 1 & start_request_a $end
$var reg 1 ' start_request_b $end
$var reg 1 ( target_state_machine_finished $end
$var wire 1 ) finish_a $end
$var wire 1 * finish_b $end
$var wire 1 + output_arguments [31] $end
$var wire 1 , output_arguments [30] $end
$var wire 1 - output_arguments [29] $end
$var wire 1 . output_arguments [28] $end
$var wire 1 / output_arguments [27] $end
$var wire 1 0 output_arguments [26] $end
$var wire 1 1 output_arguments [25] $end
$var wire 1 2 output_arguments [24] $end
$var wire 1 3 output_arguments [23] $end
$var wire 1 4 output_arguments [22] $end
$var wire 1 5 output_arguments [21] $end
$var wire 1 6 output_arguments [20] $end
$var wire 1 7 output_arguments [19] $end
$var wire 1 8 output_arguments [18] $end
$var wire 1 9 output_arguments [17] $end
$var wire 1 : output_arguments [16] $end
$var wire 1 ; output_arguments [15] $end
$var wire 1 < output_arguments [14] $end
$var wire 1 = output_arguments [13] $end
$var wire 1 > output_arguments [12] $end
$var wire 1 ? output_arguments [11] $end
$var wire 1 @ output_arguments [10] $end
$var wire 1 A output_arguments [9] $end
$var wire 1 B output_arguments [8] $end
$var wire 1 C output_arguments [7] $end
$var wire 1 D output_arguments [6] $end
$var wire 1 E output_arguments [5] $end
$var wire 1 F output_arguments [4] $end
$var wire 1 G output_arguments [3] $end
$var wire 1 H output_arguments [2] $end
$var wire 1 I output_arguments [1] $end
$var wire 1 J output_arguments [0] $end
$var wire 1 K received_data_a [7] $end
$var wire 1 L received_data_a [6] $end
$var wire 1 M received_data_a [5] $end
$var wire 1 N received_data_a [4] $end
$var wire 1 O received_data_a [3] $end
$var wire 1 P received_data_a [2] $end
$var wire 1 Q received_data_a [1] $end
$var wire 1 R received_data_a [0] $end
$var wire 1 S received_data_b [7] $end
$var wire 1 T received_data_b [6] $end
$var wire 1 U received_data_b [5] $end
$var wire 1 V received_data_b [4] $end
$var wire 1 W received_data_b [3] $end
$var wire 1 X received_data_b [2] $end
$var wire 1 Y received_data_b [1] $end
$var wire 1 Z received_data_b [0] $end
$var wire 1 [ reset_start_request_a $end
$var wire 1 \ reset_start_request_b $end
$var wire 1 ] start_target_state_machine $end

$scope module i1 $end
$var wire 1 ^ gnd $end
$var wire 1 _ vcc $end
$var wire 1 ` unknown $end
$var tri1 1 a devclrn $end
$var tri1 1 b devpor $end
$var tri1 1 c devoe $end
$var wire 1 d ~QUARTUS_CREATED_GND~I_combout $end
$var wire 1 e sm_clk~input_o $end
$var wire 1 f sm_clk~inputCLKENA0_outclk $end
$var wire 1 g target_state_machine_finished~input_o $end
$var wire 1 h Selector1~0_combout $end
$var wire 1 i state~2_combout $end
$var wire 1 j reset~input_o $end
$var wire 1 k Equal7~1_combout $end
$var wire 1 l Selector0~0_combout $end
$var wire 1 m state[2]~DUPLICATE_q $end
$var wire 1 n Equal8~0_combout $end
$var wire 1 o Equal2~0_combout $end
$var wire 1 p Selector3~2_combout $end
$var wire 1 q Equal0~1_combout $end
$var wire 1 r start_request_a~input_o $end
$var wire 1 s state~0_combout $end
$var wire 1 t Equal8~1_combout $end
$var wire 1 u Equal4~0_combout $end
$var wire 1 v Selector4~0_combout $end
$var wire 1 w Equal0~2_combout $end
$var wire 1 x Equal6~0_combout $end
$var wire 1 y Equal6~1_combout $end
$var wire 1 z Selector4~1_combout $end
$var wire 1 { Equal2~1_combout $end
$var wire 1 | Equal1~0_combout $end
$var wire 1 } Equal1~1_combout $end
$var wire 1 ~ Selector2~0_combout $end
$var wire 1 !! start_request_b~input_o $end
$var wire 1 "! state~1_combout $end
$var wire 1 #! Selector1~1_combout $end
$var wire 1 $! Equal7~0_combout $end
$var wire 1 %! Selector5~1_combout $end
$var wire 1 &! Selector5~0_combout $end
$var wire 1 '! Equal0~0_combout $end
$var wire 1 (! Selector3~0_combout $end
$var wire 1 )! Selector3~1_combout $end
$var wire 1 *! Equal3~0_combout $end
$var wire 1 +! in_received_data[0]~input_o $end
$var wire 1 ,! received_data_a[0]~reg0_q $end
$var wire 1 -! in_received_data[1]~input_o $end
$var wire 1 .! received_data_a[1]~reg0_q $end
$var wire 1 /! in_received_data[2]~input_o $end
$var wire 1 0! received_data_a[2]~reg0_q $end
$var wire 1 1! in_received_data[3]~input_o $end
$var wire 1 2! received_data_a[3]~reg0_q $end
$var wire 1 3! in_received_data[4]~input_o $end
$var wire 1 4! received_data_a[4]~reg0feeder_combout $end
$var wire 1 5! received_data_a[4]~reg0_q $end
$var wire 1 6! in_received_data[5]~input_o $end
$var wire 1 7! received_data_a[5]~reg0feeder_combout $end
$var wire 1 8! received_data_a[5]~reg0_q $end
$var wire 1 9! in_received_data[6]~input_o $end
$var wire 1 :! received_data_a[6]~reg0_q $end
$var wire 1 ;! in_received_data[7]~input_o $end
$var wire 1 <! received_data_a[7]~reg0_q $end
$var wire 1 =! received_data_b[0]~reg0feeder_combout $end
$var wire 1 >! received_data_b[0]~reg0_q $end
$var wire 1 ?! received_data_b[1]~reg0_q $end
$var wire 1 @! received_data_b[2]~reg0_q $end
$var wire 1 A! received_data_b[3]~reg0feeder_combout $end
$var wire 1 B! received_data_b[3]~reg0_q $end
$var wire 1 C! received_data_b[4]~reg0feeder_combout $end
$var wire 1 D! received_data_b[4]~reg0_q $end
$var wire 1 E! received_data_b[5]~reg0feeder_combout $end
$var wire 1 F! received_data_b[5]~reg0_q $end
$var wire 1 G! received_data_b[6]~reg0_q $end
$var wire 1 H! received_data_b[7]~reg0_q $end
$var wire 1 I! input_arguments_b[0]~input_o $end
$var wire 1 J! input_arguments_a[0]~input_o $end
$var wire 1 K! output_arguments~0_combout $end
$var wire 1 L! input_arguments_b[1]~input_o $end
$var wire 1 M! input_arguments_a[1]~input_o $end
$var wire 1 N! output_arguments~1_combout $end
$var wire 1 O! input_arguments_a[2]~input_o $end
$var wire 1 P! input_arguments_b[2]~input_o $end
$var wire 1 Q! output_arguments~2_combout $end
$var wire 1 R! input_arguments_a[3]~input_o $end
$var wire 1 S! input_arguments_b[3]~input_o $end
$var wire 1 T! output_arguments~3_combout $end
$var wire 1 U! input_arguments_b[4]~input_o $end
$var wire 1 V! input_arguments_a[4]~input_o $end
$var wire 1 W! output_arguments~4_combout $end
$var wire 1 X! input_arguments_b[5]~input_o $end
$var wire 1 Y! input_arguments_a[5]~input_o $end
$var wire 1 Z! output_arguments~5_combout $end
$var wire 1 [! input_arguments_a[6]~input_o $end
$var wire 1 \! input_arguments_b[6]~input_o $end
$var wire 1 ]! output_arguments~6_combout $end
$var wire 1 ^! input_arguments_a[7]~input_o $end
$var wire 1 _! input_arguments_b[7]~input_o $end
$var wire 1 `! output_arguments~7_combout $end
$var wire 1 a! input_arguments_a[8]~input_o $end
$var wire 1 b! input_arguments_b[8]~input_o $end
$var wire 1 c! output_arguments~8_combout $end
$var wire 1 d! input_arguments_b[9]~input_o $end
$var wire 1 e! input_arguments_a[9]~input_o $end
$var wire 1 f! output_arguments~9_combout $end
$var wire 1 g! input_arguments_b[10]~input_o $end
$var wire 1 h! input_arguments_a[10]~input_o $end
$var wire 1 i! output_arguments~10_combout $end
$var wire 1 j! input_arguments_a[11]~input_o $end
$var wire 1 k! input_arguments_b[11]~input_o $end
$var wire 1 l! output_arguments~11_combout $end
$var wire 1 m! input_arguments_a[12]~input_o $end
$var wire 1 n! input_arguments_b[12]~input_o $end
$var wire 1 o! output_arguments~12_combout $end
$var wire 1 p! input_arguments_a[13]~input_o $end
$var wire 1 q! input_arguments_b[13]~input_o $end
$var wire 1 r! output_arguments~13_combout $end
$var wire 1 s! input_arguments_a[14]~input_o $end
$var wire 1 t! input_arguments_b[14]~input_o $end
$var wire 1 u! output_arguments~14_combout $end
$var wire 1 v! input_arguments_a[15]~input_o $end
$var wire 1 w! input_arguments_b[15]~input_o $end
$var wire 1 x! output_arguments~15_combout $end
$var wire 1 y! input_arguments_a[16]~input_o $end
$var wire 1 z! input_arguments_b[16]~input_o $end
$var wire 1 {! output_arguments~16_combout $end
$var wire 1 |! input_arguments_a[17]~input_o $end
$var wire 1 }! input_arguments_b[17]~input_o $end
$var wire 1 ~! output_arguments~17_combout $end
$var wire 1 !" input_arguments_a[18]~input_o $end
$var wire 1 "" input_arguments_b[18]~input_o $end
$var wire 1 #" output_arguments~18_combout $end
$var wire 1 $" input_arguments_a[19]~input_o $end
$var wire 1 %" input_arguments_b[19]~input_o $end
$var wire 1 &" output_arguments~19_combout $end
$var wire 1 '" input_arguments_b[20]~input_o $end
$var wire 1 (" input_arguments_a[20]~input_o $end
$var wire 1 )" output_arguments~20_combout $end
$var wire 1 *" input_arguments_b[21]~input_o $end
$var wire 1 +" input_arguments_a[21]~input_o $end
$var wire 1 ," output_arguments~21_combout $end
$var wire 1 -" input_arguments_a[22]~input_o $end
$var wire 1 ." input_arguments_b[22]~input_o $end
$var wire 1 /" output_arguments~22_combout $end
$var wire 1 0" input_arguments_a[23]~input_o $end
$var wire 1 1" input_arguments_b[23]~input_o $end
$var wire 1 2" output_arguments~23_combout $end
$var wire 1 3" input_arguments_b[24]~input_o $end
$var wire 1 4" input_arguments_a[24]~input_o $end
$var wire 1 5" output_arguments~24_combout $end
$var wire 1 6" input_arguments_b[25]~input_o $end
$var wire 1 7" input_arguments_a[25]~input_o $end
$var wire 1 8" output_arguments~25_combout $end
$var wire 1 9" input_arguments_b[26]~input_o $end
$var wire 1 :" input_arguments_a[26]~input_o $end
$var wire 1 ;" output_arguments~26_combout $end
$var wire 1 <" input_arguments_b[27]~input_o $end
$var wire 1 =" input_arguments_a[27]~input_o $end
$var wire 1 >" output_arguments~27_combout $end
$var wire 1 ?" input_arguments_a[28]~input_o $end
$var wire 1 @" input_arguments_b[28]~input_o $end
$var wire 1 A" output_arguments~28_combout $end
$var wire 1 B" input_arguments_b[29]~input_o $end
$var wire 1 C" input_arguments_a[29]~input_o $end
$var wire 1 D" output_arguments~29_combout $end
$var wire 1 E" input_arguments_b[30]~input_o $end
$var wire 1 F" input_arguments_a[30]~input_o $end
$var wire 1 G" output_arguments~30_combout $end
$var wire 1 H" input_arguments_a[31]~input_o $end
$var wire 1 I" input_arguments_b[31]~input_o $end
$var wire 1 J" output_arguments~31_combout $end
$var wire 1 K" state [11] $end
$var wire 1 L" state [10] $end
$var wire 1 M" state [9] $end
$var wire 1 N" state [8] $end
$var wire 1 O" state [7] $end
$var wire 1 P" state [6] $end
$var wire 1 Q" state [5] $end
$var wire 1 R" state [4] $end
$var wire 1 S" state [3] $end
$var wire 1 T" state [2] $end
$var wire 1 U" state [1] $end
$var wire 1 V" state [0] $end
$upscope $end
$upscope $end
$enddefinitions $end
#0
$dumpvars
b1010011 !
b111001111000110010111000110011 "
b1111010000111010101110010101111 #
0$
0%
1&
0'
0(
0)
0*
1J
1I
0H
0G
1F
1E
0D
0C
0B
1A
1@
1?
0>
1=
0<
0;
1:
19
08
07
06
15
14
13
12
01
00
1/
1.
1-
0,
0+
0R
0Q
0P
0O
0N
0M
0L
0K
0Z
0Y
0X
0W
0V
0U
0T
0S
0[
0\
0]
0^
1_
x`
1a
1b
1c
0d
0e
0f
0g
0h
0i
0j
0k
0l
0m
0n
0o
0p
1q
1r
1s
0t
0u
0v
1w
0x
0y
0z
0{
0|
0}
0~
0!!
0"!
0#!
0$!
1%!
1&!
1'!
1(!
1)!
0*!
1+!
0,!
1-!
0.!
0/!
00!
01!
02!
13!
14!
05!
06!
07!
08!
19!
0:!
0;!
0<!
1=!
0>!
0?!
0@!
0A!
0B!
1C!
0D!
0E!
0F!
0G!
0H!
1I!
1J!
1K!
1L!
1M!
1N!
0O!
1P!
0Q!
0R!
1S!
0T!
0U!
1V!
1W!
1X!
1Y!
1Z!
0[!
0\!
0]!
0^!
1_!
0`!
0a!
0b!
0c!
0d!
1e!
1f!
1g!
1h!
1i!
1j!
1k!
1l!
0m!
1n!
0o!
1p!
0q!
1r!
0s!
1t!
0u!
0v!
0w!
0x!
1y!
1z!
1{!
1|!
0}!
1~!
0!"
1""
0#"
0$"
1%"
0&"
1'"
0("
0)"
0*"
1+"
1,"
1-"
0."
1/"
10"
01"
12"
03"
14"
15"
16"
07"
08"
09"
0:"
0;"
1<"
1="
1>"
1?"
1@"
1A"
1B"
1C"
1D"
1E"
0F"
0G"
0H"
0I"
0J"
0V"
0U"
0T"
0S"
0R"
0Q"
0P"
0O"
0N"
0M"
0L"
0K"
$end
#5000
1%
1e
1f
1N"
1P"
1Q"
1[
1]
0(!
0%!
1|
0'!
0&!
0s
1}
0)!
1~
#10000
0&
0%
0r
0e
0f
#15000
1%
1e
1f
0N"
1M"
0P"
0Q"
0[
0]
0q
1o
0|
1'!
0}
1{
0~
1~
#20000
0%
0e
0f
#25000
1%
1e
1f
#30000
0%
0e
0f
#35000
1%
1e
1f
#40000
1(
0%
1g
0e
0f
1)!
1p
#45000
1%
1e
1f
1N"
1U"
1*!
0{
0p
0)!
0~
1#!
#50000
0(
0%
0g
0e
0f
#55000
1%
1e
1f
0N"
1L"
0M"
0U"
1:!
15!
1.!
1,!
1S"
1)
1R
1Q
1N
1L
0*!
1{
1u
0o
0{
1(!
1v
1~
0#!
1#!
1z
1)!
0~
#60000
0%
0e
0f
#65000
1%
1e
1f
1N"
1O"
0S"
0)
0(!
1$!
0v
0u
1G"
18"
05"
02"
0/"
0,"
1)"
1&"
1#"
0~!
1u!
0r!
1o!
0f!
1`!
0W!
1T!
1Q!
1H
1G
0F
1C
0A
1>
0=
1<
09
18
17
16
05
04
03
02
11
1,
0#!
0z
0)!
#70000
1'
0%
1!!
0e
0f
1%!
1"!
1#!
1~
1z
1&!
#75000
1%
1e
1f
0N"
1M"
1P"
1R"
1\
1]
0"!
1x
0%!
0'!
0&!
1y
0#!
0~
0z
1)!
1#!
1~
1z
#80000
0'
0%
0!!
0e
0f
#85000
1%
1e
1f
1N"
0P"
0R"
0\
0]
0x
1'!
0y
1k
1h
0)!
0#!
0~
0z
1#!
1~
1)!
1z
#90000
0%
0e
0f
#95000
1%
1e
1f
#100000
0%
0e
0f
#105000
1%
1e
1f
#110000
1(
0%
1g
0e
0f
0h
0)!
1l
1i
0#!
0~
#115000
1%
1e
1f
0N"
0L"
0M"
1K"
1V"
0'!
0w
1n
1q
0k
0$!
0i
1t
0z
0l
1)!
1z
1l
#120000
0(
0%
0g
0e
0f
#125000
1%
1e
1f
1N"
1m
0V"
1G!
1D!
1?!
1>!
1T"
1*
1Z
1Y
1V
1T
0n
0t
0)!
0z
0l
#130000
0%
0e
0f
#135000
1%
1e
1f
0N"
0O"
0m
0K"
0T"
0*
1'!
1w
0G"
08"
15"
12"
1/"
1,"
0)"
0&"
0#"
1~!
0u!
1r!
0o!
1f!
0`!
1W!
0T!
0Q!
0H
0G
1F
0C
1A
0>
1=
0<
19
08
07
06
15
14
13
12
01
0,
1(!
1v
1#!
1z
1)!
#140000
1$
0%
1j
0e
0f
#145000
1%
1e
1f
#150000
0%
0e
0f
#155000
1%
1e
1f
#160000
0$
0%
0j
0e
0f
#165000
1%
1e
1f
1N"
1L"
1O"
0(!
1$!
0v
0q
1G"
18"
05"
02"
0/"
0,"
1)"
1&"
1#"
0~!
1u!
0r!
1o!
0f!
1`!
0W!
1T!
1Q!
1H
1G
0F
1C
0A
1>
0=
1<
09
18
17
16
05
04
03
02
11
1,
0#!
0z
0)!
#170000
0%
0e
0f
#175000
1%
1e
1f
0N"
0L"
0O"
0$!
1q
0G"
08"
15"
12"
1/"
1,"
0)"
0&"
0#"
1~!
0u!
1r!
0o!
1f!
0`!
1W!
0T!
0Q!
0H
0G
1F
0C
1A
0>
1=
0<
19
08
07
06
15
14
13
12
01
0,
1(!
1v
1#!
1z
1)!
#180000
0%
0e
0f
#185000
1%
1e
1f
1N"
1L"
1O"
0(!
1$!
0v
0q
1G"
18"
05"
02"
0/"
0,"
1)"
1&"
1#"
0~!
1u!
0r!
1o!
0f!
1`!
0W!
1T!
1Q!
1H
1G
0F
1C
0A
1>
0=
1<
09
18
17
16
05
04
03
02
11
1,
0#!
0z
0)!
#190000
0%
0e
0f
#195000
1%
1e
1f
0N"
0L"
0O"
0$!
1q
0G"
08"
15"
12"
1/"
1,"
0)"
0&"
0#"
1~!
0u!
1r!
0o!
1f!
0`!
1W!
0T!
0Q!
0H
0G
1F
0C
1A
0>
1=
0<
19
08
07
06
15
14
13
12
01
0,
1(!
1v
1#!
1z
1)!
#200000
0%
0e
0f
#205000
1%
1e
1f
1N"
1L"
1O"
0(!
1$!
0v
0q
1G"
18"
05"
02"
0/"
0,"
1)"
1&"
1#"
0~!
1u!
0r!
1o!
0f!
1`!
0W!
1T!
1Q!
1H
1G
0F
1C
0A
1>
0=
1<
09
18
17
16
05
04
03
02
11
1,
0#!
0z
0)!
#210000
0%
0e
0f
#215000
1%
1e
1f
0N"
0L"
0O"
0$!
1q
0G"
08"
15"
12"
1/"
1,"
0)"
0&"
0#"
1~!
0u!
1r!
0o!
1f!
0`!
1W!
0T!
0Q!
0H
0G
1F
0C
1A
0>
1=
0<
19
08
07
06
15
14
13
12
01
0,
1(!
1v
1#!
1z
1)!
#220000
0%
0e
0f
#225000
1%
1e
1f
1N"
1L"
1O"
0(!
1$!
0v
0q
1G"
18"
05"
02"
0/"
0,"
1)"
1&"
1#"
0~!
1u!
0r!
1o!
0f!
1`!
0W!
1T!
1Q!
1H
1G
0F
1C
0A
1>
0=
1<
09
18
17
16
05
04
03
02
11
1,
0#!
0z
0)!
#230000
0%
0e
0f
#235000
1%
1e
1f
0N"
0L"
0O"
0$!
1q
0G"
08"
15"
12"
1/"
1,"
0)"
0&"
0#"
1~!
0u!
1r!
0o!
1f!
0`!
1W!
0T!
0Q!
0H
0G
1F
0C
1A
0>
1=
0<
19
08
07
06
15
14
13
12
01
0,
1(!
1v
1#!
1z
1)!
#240000
0%
0e
0f
#245000
1%
1e
1f
1N"
1L"
1O"
0(!
1$!
0v
0q
1G"
18"
05"
02"
0/"
0,"
1)"
1&"
1#"
0~!
1u!
0r!
1o!
0f!
1`!
0W!
1T!
1Q!
1H
1G
0F
1C
0A
1>
0=
1<
09
18
17
16
05
04
03
02
11
1,
0#!
0z
0)!
#250000
0%
0e
0f
#255000
1%
1e
1f
0N"
0L"
0O"
0$!
1q
0G"
08"
15"
12"
1/"
1,"
0)"
0&"
0#"
1~!
0u!
1r!
0o!
1f!
0`!
1W!
0T!
0Q!
0H
0G
1F
0C
1A
0>
1=
0<
19
08
07
06
15
14
13
12
01
0,
1(!
1v
1#!
1z
1)!
#260000
0%
0e
0f
#265000
1%
1e
1f
1N"
1L"
1O"
0(!
1$!
0v
0q
1G"
18"
05"
02"
0/"
0,"
1)"
1&"
1#"
0~!
1u!
0r!
1o!
0f!
1`!
0W!
1T!
1Q!
1H
1G
0F
1C
0A
1>
0=
1<
09
18
17
16
05
04
03
02
11
1,
0#!
0z
0)!
#270000
0%
0e
0f
#275000
1%
1e
1f
0N"
0L"
0O"
0$!
1q
0G"
08"
15"
12"
1/"
1,"
0)"
0&"
0#"
1~!
0u!
1r!
0o!
1f!
0`!
1W!
0T!
0Q!
0H
0G
1F
0C
1A
0>
1=
0<
19
08
07
06
15
14
13
12
01
0,
1(!
1v
1#!
1z
1)!
#280000
0%
0e
0f
#285000
1%
1e
1f
1N"
1L"
1O"
0(!
1$!
0v
0q
1G"
18"
05"
02"
0/"
0,"
1)"
1&"
1#"
0~!
1u!
0r!
1o!
0f!
1`!
0W!
1T!
1Q!
1H
1G
0F
1C
0A
1>
0=
1<
09
18
17
16
05
04
03
02
11
1,
0#!
0z
0)!
#290000
0%
0e
0f
#295000
1%
1e
1f
0N"
0L"
0O"
0$!
1q
0G"
08"
15"
12"
1/"
1,"
0)"
0&"
0#"
1~!
0u!
1r!
0o!
1f!
0`!
1W!
0T!
0Q!
0H
0G
1F
0C
1A
0>
1=
0<
19
08
07
06
15
14
13
12
01
0,
1(!
1v
1#!
1z
1)!
#300000
0%
0e
0f
#305000
1%
1e
1f
1N"
1L"
1O"
0(!
1$!
0v
0q
1G"
18"
05"
02"
0/"
0,"
1)"
1&"
1#"
0~!
1u!
0r!
1o!
0f!
1`!
0W!
1T!
1Q!
1H
1G
0F
1C
0A
1>
0=
1<
09
18
17
16
05
04
03
02
11
1,
0#!
0z
0)!
#310000
0%
0e
0f
#315000
1%
1e
1f
0N"
0L"
0O"
0$!
1q
0G"
08"
15"
12"
1/"
1,"
0)"
0&"
0#"
1~!
0u!
1r!
0o!
1f!
0`!
1W!
0T!
0Q!
0H
0G
1F
0C
1A
0>
1=
0<
19
08
07
06
15
14
13
12
01
0,
1(!
1v
1#!
1z
1)!
#320000
0%
0e
0f
#325000
1%
1e
1f
1N"
1L"
1O"
0(!
1$!
0v
0q
1G"
18"
05"
02"
0/"
0,"
1)"
1&"
1#"
0~!
1u!
0r!
1o!
0f!
1`!
0W!
1T!
1Q!
1H
1G
0F
1C
0A
1>
0=
1<
09
18
17
16
05
04
03
02
11
1,
0#!
0z
0)!
#330000
0%
0e
0f
#335000
1%
1e
1f
0N"
0L"
0O"
0$!
1q
0G"
08"
15"
12"
1/"
1,"
0)"
0&"
0#"
1~!
0u!
1r!
0o!
1f!
0`!
1W!
0T!
0Q!
0H
0G
1F
0C
1A
0>
1=
0<
19
08
07
06
15
14
13
12
01
0,
1(!
1v
1#!
1z
1)!
#340000
0%
0e
0f
#345000
1%
1e
1f
1N"
1L"
1O"
0(!
1$!
0v
0q
1G"
18"
05"
02"
0/"
0,"
1)"
1&"
1#"
0~!
1u!
0r!
1o!
0f!
1`!
0W!
1T!
1Q!
1H
1G
0F
1C
0A
1>
0=
1<
09
18
17
16
05
04
03
02
11
1,
0#!
0z
0)!
#350000
0%
0e
0f
#355000
1%
1e
1f
0N"
0L"
0O"
0$!
1q
0G"
08"
15"
12"
1/"
1,"
0)"
0&"
0#"
1~!
0u!
1r!
0o!
1f!
0`!
1W!
0T!
0Q!
0H
0G
1F
0C
1A
0>
1=
0<
19
08
07
06
15
14
13
12
01
0,
1(!
1v
1#!
1z
1)!
#360000
0%
0e
0f
#365000
1%
1e
1f
1N"
1L"
1O"
0(!
1$!
0v
0q
1G"
18"
05"
02"
0/"
0,"
1)"
1&"
1#"
0~!
1u!
0r!
1o!
0f!
1`!
0W!
1T!
1Q!
1H
1G
0F
1C
0A
1>
0=
1<
09
18
17
16
05
04
03
02
11
1,
0#!
0z
0)!
#370000
0%
0e
0f
#375000
1%
1e
1f
0N"
0L"
0O"
0$!
1q
0G"
08"
15"
12"
1/"
1,"
0)"
0&"
0#"
1~!
0u!
1r!
0o!
1f!
0`!
1W!
0T!
0Q!
0H
0G
1F
0C
1A
0>
1=
0<
19
08
07
06
15
14
13
12
01
0,
1(!
1v
1#!
1z
1)!
#380000
0%
0e
0f
#385000
1%
1e
1f
1N"
1L"
1O"
0(!
1$!
0v
0q
1G"
18"
05"
02"
0/"
0,"
1)"
1&"
1#"
0~!
1u!
0r!
1o!
0f!
1`!
0W!
1T!
1Q!
1H
1G
0F
1C
0A
1>
0=
1<
09
18
17
16
05
04
03
02
11
1,
0#!
0z
0)!
#390000
0%
0e
0f
#395000
1%
1e
1f
0N"
0L"
0O"
0$!
1q
0G"
08"
15"
12"
1/"
1,"
0)"
0&"
0#"
1~!
0u!
1r!
0o!
1f!
0`!
1W!
0T!
0Q!
0H
0G
1F
0C
1A
0>
1=
0<
19
08
07
06
15
14
13
12
01
0,
1(!
1v
1#!
1z
1)!
#400000
0%
0e
0f
#405000
1%
1e
1f
1N"
1L"
1O"
0(!
1$!
0v
0q
1G"
18"
05"
02"
0/"
0,"
1)"
1&"
1#"
0~!
1u!
0r!
1o!
0f!
1`!
0W!
1T!
1Q!
1H
1G
0F
1C
0A
1>
0=
1<
09
18
17
16
05
04
03
02
11
1,
0#!
0z
0)!
#410000
0%
0e
0f
#415000
1%
1e
1f
0N"
0L"
0O"
0$!
1q
0G"
08"
15"
12"
1/"
1,"
0)"
0&"
0#"
1~!
0u!
1r!
0o!
1f!
0`!
1W!
0T!
0Q!
0H
0G
1F
0C
1A
0>
1=
0<
19
08
07
06
15
14
13
12
01
0,
1(!
1v
1#!
1z
1)!
#420000
0%
0e
0f
#425000
1%
1e
1f
1N"
1L"
1O"
0(!
1$!
0v
0q
1G"
18"
05"
02"
0/"
0,"
1)"
1&"
1#"
0~!
1u!
0r!
1o!
0f!
1`!
0W!
1T!
1Q!
1H
1G
0F
1C
0A
1>
0=
1<
09
18
17
16
05
04
03
02
11
1,
0#!
0z
0)!
#430000
0%
0e
0f
#435000
1%
1e
1f
0N"
0L"
0O"
0$!
1q
0G"
08"
15"
12"
1/"
1,"
0)"
0&"
0#"
1~!
0u!
1r!
0o!
1f!
0`!
1W!
0T!
0Q!
0H
0G
1F
0C
1A
0>
1=
0<
19
08
07
06
15
14
13
12
01
0,
1(!
1v
1#!
1z
1)!
#440000
0%
0e
0f
#445000
1%
1e
1f
1N"
1L"
1O"
0(!
1$!
0v
0q
1G"
18"
05"
02"
0/"
0,"
1)"
1&"
1#"
0~!
1u!
0r!
1o!
0f!
1`!
0W!
1T!
1Q!
1H
1G
0F
1C
0A
1>
0=
1<
09
18
17
16
05
04
03
02
11
1,
0#!
0z
0)!
#450000
0%
0e
0f
#455000
1%
1e
1f
0N"
0L"
0O"
0$!
1q
0G"
08"
15"
12"
1/"
1,"
0)"
0&"
0#"
1~!
0u!
1r!
0o!
1f!
0`!
1W!
0T!
0Q!
0H
0G
1F
0C
1A
0>
1=
0<
19
08
07
06
15
14
13
12
01
0,
1(!
1v
1#!
1z
1)!
#460000
0%
0e
0f
#465000
1%
1e
1f
1N"
1L"
1O"
0(!
1$!
0v
0q
1G"
18"
05"
02"
0/"
0,"
1)"
1&"
1#"
0~!
1u!
0r!
1o!
0f!
1`!
0W!
1T!
1Q!
1H
1G
0F
1C
0A
1>
0=
1<
09
18
17
16
05
04
03
02
11
1,
0#!
0z
0)!
#470000
0%
0e
0f
#475000
1%
1e
1f
0N"
0L"
0O"
0$!
1q
0G"
08"
15"
12"
1/"
1,"
0)"
0&"
0#"
1~!
0u!
1r!
0o!
1f!
0`!
1W!
0T!
0Q!
0H
0G
1F
0C
1A
0>
1=
0<
19
08
07
06
15
14
13
12
01
0,
1(!
1v
1#!
1z
1)!
#480000
0%
0e
0f
#485000
1%
1e
1f
1N"
1L"
1O"
0(!
1$!
0v
0q
1G"
18"
05"
02"
0/"
0,"
1)"
1&"
1#"
0~!
1u!
0r!
1o!
0f!
1`!
0W!
1T!
1Q!
1H
1G
0F
1C
0A
1>
0=
1<
09
18
17
16
05
04
03
02
11
1,
0#!
0z
0)!
#490000
0%
0e
0f
#495000
1%
1e
1f
0N"
0L"
0O"
0$!
1q
0G"
08"
15"
12"
1/"
1,"
0)"
0&"
0#"
1~!
0u!
1r!
0o!
1f!
0`!
1W!
0T!
0Q!
0H
0G
1F
0C
1A
0>
1=
0<
19
08
07
06
15
14
13
12
01
0,
1(!
1v
1#!
1z
1)!
#500000
0%
0e
0f
#505000
1%
1e
1f
1N"
1L"
1O"
0(!
1$!
0v
0q
1G"
18"
05"
02"
0/"
0,"
1)"
1&"
1#"
0~!
1u!
0r!
1o!
0f!
1`!
0W!
1T!
1Q!
1H
1G
0F
1C
0A
1>
0=
1<
09
18
17
16
05
04
03
02
11
1,
0#!
0z
0)!
#510000
0%
0e
0f
#515000
1%
1e
1f
0N"
0L"
0O"
0$!
1q
0G"
08"
15"
12"
1/"
1,"
0)"
0&"
0#"
1~!
0u!
1r!
0o!
1f!
0`!
1W!
0T!
0Q!
0H
0G
1F
0C
1A
0>
1=
0<
19
08
07
06
15
14
13
12
01
0,
1(!
1v
1#!
1z
1)!
#520000
0%
0e
0f
#525000
1%
1e
1f
1N"
1L"
1O"
0(!
1$!
0v
0q
1G"
18"
05"
02"
0/"
0,"
1)"
1&"
1#"
0~!
1u!
0r!
1o!
0f!
1`!
0W!
1T!
1Q!
1H
1G
0F
1C
0A
1>
0=
1<
09
18
17
16
05
04
03
02
11
1,
0#!
0z
0)!
#530000
0%
0e
0f
#535000
1%
1e
1f
0N"
0L"
0O"
0$!
1q
0G"
08"
15"
12"
1/"
1,"
0)"
0&"
0#"
1~!
0u!
1r!
0o!
1f!
0`!
1W!
0T!
0Q!
0H
0G
1F
0C
1A
0>
1=
0<
19
08
07
06
15
14
13
12
01
0,
1(!
1v
1#!
1z
1)!
#540000
0%
0e
0f
#545000
1%
1e
1f
1N"
1L"
1O"
0(!
1$!
0v
0q
1G"
18"
05"
02"
0/"
0,"
1)"
1&"
1#"
0~!
1u!
0r!
1o!
0f!
1`!
0W!
1T!
1Q!
1H
1G
0F
1C
0A
1>
0=
1<
09
18
17
16
05
04
03
02
11
1,
0#!
0z
0)!
#550000
0%
0e
0f
#555000
1%
1e
1f
0N"
0L"
0O"
0$!
1q
0G"
08"
15"
12"
1/"
1,"
0)"
0&"
0#"
1~!
0u!
1r!
0o!
1f!
0`!
1W!
0T!
0Q!
0H
0G
1F
0C
1A
0>
1=
0<
19
08
07
06
15
14
13
12
01
0,
1(!
1v
1#!
1z
1)!
#560000
0%
0e
0f
